isa,os,binary,compiler,flags,pie,strip,.elf.func,.egalito.rewritten.func,.ddisasm.rewritten.func
x86_64,ubuntu20,bitcoin,gcc,O0,pie,strip,OK,ERR,ERR
x86_64,ubuntu20,bitcoin,gcc,O0,pie,nostrip,OK,ERR,ERR
x86_64,ubuntu20,bitcoin,gcc,O1,pie,strip,OK,ERR,ERR
x86_64,ubuntu20,bitcoin,gcc,O1,pie,nostrip,OK,ERR,ERR
x86_64,ubuntu20,bitcoin,gcc,O2,pie,strip,OK,ERR,ERR
x86_64,ubuntu20,bitcoin,gcc,O2,pie,nostrip,OK,ERR,ERR
x86_64,ubuntu20,bitcoin,gcc,O3,pie,strip,OK,ERR,ERR
x86_64,ubuntu20,bitcoin,gcc,O3,pie,nostrip,OK,ERR,ERR
x86_64,ubuntu20,bitcoin,gcc,Os,pie,strip,OK,ERR,ERR
x86_64,ubuntu20,bitcoin,gcc,Os,pie,nostrip,OK,ERR,ERR
x86_64,ubuntu20,bitcoin,gcc,Ofast,pie,strip,OK,ERR,ERR
x86_64,ubuntu20,bitcoin,gcc,Ofast,pie,nostrip,OK,ERR,ERR
x86_64,ubuntu20,bitcoin,gcc,O0,nopie,strip,OK,ERR,ERR
x86_64,ubuntu20,bitcoin,gcc,O0,nopie,nostrip,OK,ERR,ERR
x86_64,ubuntu20,bitcoin,gcc,O1,nopie,strip,OK,ERR,ERR
x86_64,ubuntu20,bitcoin,gcc,O1,nopie,nostrip,OK,ERR,ERR
x86_64,ubuntu20,bitcoin,gcc,O2,nopie,strip,OK,ERR,ERR
x86_64,ubuntu20,bitcoin,gcc,O2,nopie,nostrip,OK,ERR,ERR
x86_64,ubuntu20,bitcoin,gcc,O3,nopie,strip,OK,ERR,ERR
x86_64,ubuntu20,bitcoin,gcc,O3,nopie,nostrip,OK,ERR,ERR
x86_64,ubuntu20,bitcoin,gcc,Os,nopie,strip,OK,ERR,ERR
x86_64,ubuntu20,bitcoin,gcc,Os,nopie,nostrip,OK,ERR,ERR
x86_64,ubuntu20,bitcoin,gcc,Ofast,nopie,strip,OK,ERR,ERR
x86_64,ubuntu20,bitcoin,gcc,Ofast,nopie,nostrip,OK,ERR,ERR
x86_64,ubuntu20,bitcoin,clang,O0,pie,strip,OK,ERR,ERR
x86_64,ubuntu20,bitcoin,clang,O0,pie,nostrip,OK,ERR,ERR
x86_64,ubuntu20,bitcoin,clang,O1,pie,strip,OK,ERR,ERR
x86_64,ubuntu20,bitcoin,clang,O1,pie,nostrip,OK,ERR,ERR
x86_64,ubuntu20,bitcoin,clang,O2,pie,strip,OK,ERR,ERR
x86_64,ubuntu20,bitcoin,clang,O2,pie,nostrip,OK,ERR,ERR
x86_64,ubuntu20,bitcoin,clang,O3,pie,strip,OK,ERR,ERR
x86_64,ubuntu20,bitcoin,clang,O3,pie,nostrip,OK,ERR,ERR
x86_64,ubuntu20,bitcoin,clang,Os,pie,strip,OK,ERR,ERR
x86_64,ubuntu20,bitcoin,clang,Os,pie,nostrip,OK,ERR,ERR
x86_64,ubuntu20,bitcoin,clang,Ofast,pie,strip,OK,ERR,ERR
x86_64,ubuntu20,bitcoin,clang,Ofast,pie,nostrip,OK,ERR,ERR
x86_64,ubuntu20,bitcoin,clang,O0,nopie,strip,OK,ERR,ERR
x86_64,ubuntu20,bitcoin,clang,O0,nopie,nostrip,OK,ERR,ERR
x86_64,ubuntu20,bitcoin,clang,O1,nopie,strip,OK,ERR,ERR
x86_64,ubuntu20,bitcoin,clang,O1,nopie,nostrip,OK,ERR,ERR
x86_64,ubuntu20,bitcoin,clang,O2,nopie,strip,OK,ERR,ERR
x86_64,ubuntu20,bitcoin,clang,O2,nopie,nostrip,OK,ERR,ERR
x86_64,ubuntu20,bitcoin,clang,O3,nopie,strip,OK,ERR,ERR
x86_64,ubuntu20,bitcoin,clang,O3,nopie,nostrip,OK,ERR,ERR
x86_64,ubuntu20,bitcoin,clang,Os,nopie,strip,OK,ERR,ERR
x86_64,ubuntu20,bitcoin,clang,Os,nopie,nostrip,OK,ERR,ERR
x86_64,ubuntu20,bitcoin,clang,Ofast,nopie,strip,OK,ERR,ERR
x86_64,ubuntu20,bitcoin,clang,Ofast,nopie,nostrip,OK,ERR,ERR
x86_64,ubuntu20,bitcoin,icx,O0,pie,strip,OK,ERR,ERR
x86_64,ubuntu20,bitcoin,icx,O0,pie,nostrip,OK,ERR,ERR
x86_64,ubuntu20,bitcoin,icx,O1,pie,strip,OK,ERR,ERR
x86_64,ubuntu20,bitcoin,icx,O1,pie,nostrip,OK,ERR,ERR
x86_64,ubuntu20,bitcoin,icx,O0,nopie,strip,OK,ERR,ERR
x86_64,ubuntu20,bitcoin,icx,O0,nopie,nostrip,OK,ERR,ERR
x86_64,ubuntu20,bitcoin,icx,O1,nopie,strip,OK,ERR,ERR
x86_64,ubuntu20,bitcoin,icx,O1,nopie,nostrip,OK,ERR,ERR
x86_64,ubuntu20,libreoffice,gcc,O0,pie,strip,OK,ERR,ERR
x86_64,ubuntu20,libreoffice,gcc,O0,pie,nostrip,OK,ERR,ERR
x86_64,ubuntu20,libreoffice,gcc,O2,pie,strip,OK,ERR,ERR
x86_64,ubuntu20,libreoffice,gcc,O2,pie,nostrip,OK,ERR,ERR
x86_64,ubuntu20,libreoffice,gcc,O3,pie,strip,OK,ERR,ERR
x86_64,ubuntu20,libreoffice,gcc,O3,pie,nostrip,OK,ERR,ERR
x86_64,ubuntu20,libreoffice,gcc,Os,pie,strip,OK,ERR,ERR
x86_64,ubuntu20,libreoffice,gcc,Os,pie,nostrip,OK,ERR,ERR
x86_64,ubuntu20,libreoffice,gcc,Ofast,pie,strip,OK,ERR,ERR
x86_64,ubuntu20,libreoffice,gcc,Ofast,pie,nostrip,OK,ERR,ERR
x86_64,ubuntu20,libreoffice,clang,O0,pie,strip,OK,ERR,ERR
x86_64,ubuntu20,libreoffice,clang,O0,pie,nostrip,OK,ERR,ERR
x86_64,ubuntu20,libreoffice,clang,O1,pie,strip,OK,ERR,ERR
x86_64,ubuntu20,libreoffice,clang,O1,pie,nostrip,OK,ERR,ERR
x86_64,ubuntu20,libreoffice,clang,O2,pie,strip,OK,ERR,ERR
x86_64,ubuntu20,libreoffice,clang,O2,pie,nostrip,OK,ERR,ERR
x86_64,ubuntu20,libreoffice,clang,O3,pie,strip,OK,ERR,ERR
x86_64,ubuntu20,libreoffice,clang,O3,pie,nostrip,OK,ERR,ERR
x86_64,ubuntu20,libreoffice,clang,Os,pie,strip,OK,ERR,ERR
x86_64,ubuntu20,libreoffice,clang,Os,pie,nostrip,OK,ERR,ERR
x86_64,ubuntu20,libreoffice,clang,Ofast,pie,strip,OK,ERR,ERR
x86_64,ubuntu20,libreoffice,clang,Ofast,pie,nostrip,OK,ERR,ERR
x86_64,ubuntu16,libzmq,gcc,O0,pie,strip,OK,ERR,ERR
x86_64,ubuntu16,libzmq,gcc,O0,pie,nostrip,OK,ERR,ERR
x86_64,ubuntu16,libzmq,gcc,O1,pie,strip,OK,OK,ERR
x86_64,ubuntu16,libzmq,gcc,O1,pie,nostrip,OK,OK,ERR
x86_64,ubuntu16,libzmq,gcc,O2,pie,strip,OK,OK,ERR
x86_64,ubuntu16,libzmq,gcc,O2,pie,nostrip,OK,ERR,ERR
x86_64,ubuntu16,libzmq,gcc,O3,pie,strip,OK,ERR,ERR
x86_64,ubuntu16,libzmq,gcc,O3,pie,nostrip,OK,ERR,ERR
x86_64,ubuntu16,libzmq,gcc,Os,pie,strip,OK,OK,ERR
x86_64,ubuntu16,libzmq,gcc,Os,pie,nostrip,OK,OK,ERR
x86_64,ubuntu16,libzmq,gcc,Ofast,pie,strip,OK,OK,ERR
x86_64,ubuntu16,libzmq,gcc,Ofast,pie,nostrip,OK,ERR,ERR
x86_64,ubuntu16,libzmq,clang,O0,pie,strip,OK,OK,ERR
x86_64,ubuntu16,libzmq,clang,O0,pie,nostrip,OK,OK,ERR
x86_64,ubuntu16,libzmq,clang,O1,pie,strip,OK,OK,ERR
x86_64,ubuntu16,libzmq,clang,O1,pie,nostrip,OK,ERR,ERR
x86_64,ubuntu16,libzmq,clang,O2,pie,strip,OK,OK,ERR
x86_64,ubuntu16,libzmq,clang,O2,pie,nostrip,OK,OK,ERR
x86_64,ubuntu16,libzmq,clang,O3,pie,strip,OK,OK,ERR
x86_64,ubuntu16,libzmq,clang,O3,pie,nostrip,OK,OK,ERR
x86_64,ubuntu16,libzmq,clang,Os,pie,strip,OK,OK,ERR
x86_64,ubuntu16,libzmq,clang,Os,pie,nostrip,OK,OK,ERR
x86_64,ubuntu16,libzmq,clang,Ofast,pie,strip,OK,OK,ERR
x86_64,ubuntu16,libzmq,clang,Ofast,pie,nostrip,OK,OK,ERR
x86_64,ubuntu20,libzmq,gcc,O0,pie,strip,OK,ERR,ERR
x86_64,ubuntu20,libzmq,gcc,O0,pie,nostrip,OK,ERR,ERR
x86_64,ubuntu20,libzmq,gcc,O1,pie,strip,ERR,ERR,ERR
x86_64,ubuntu20,libzmq,gcc,O1,pie,nostrip,ERR,ERR,ERR
x86_64,ubuntu20,libzmq,gcc,O2,pie,strip,ERR,ERR,ERR
x86_64,ubuntu20,libzmq,gcc,O2,pie,nostrip,ERR,ERR,ERR
x86_64,ubuntu20,libzmq,gcc,O3,pie,strip,ERR,ERR,ERR
x86_64,ubuntu20,libzmq,gcc,O3,pie,nostrip,ERR,ERR,ERR
x86_64,ubuntu20,libzmq,gcc,Os,pie,strip,ERR,ERR,ERR
x86_64,ubuntu20,libzmq,gcc,Os,pie,nostrip,ERR,ERR,ERR
x86_64,ubuntu20,libzmq,gcc,Ofast,pie,strip,ERR,ERR,ERR
x86_64,ubuntu20,libzmq,gcc,Ofast,pie,nostrip,ERR,ERR,ERR
x86_64,ubuntu20,libzmq,clang,O0,pie,strip,OK,OK,ERR
x86_64,ubuntu20,libzmq,clang,O0,pie,nostrip,OK,OK,ERR
x86_64,ubuntu20,libzmq,clang,O1,pie,strip,OK,OK,ERR
x86_64,ubuntu20,libzmq,clang,O1,pie,nostrip,OK,ERR,ERR
x86_64,ubuntu20,libzmq,clang,O2,pie,strip,OK,OK,ERR
x86_64,ubuntu20,libzmq,clang,O2,pie,nostrip,OK,OK,ERR
x86_64,ubuntu20,libzmq,clang,O3,pie,strip,OK,ERR,ERR
x86_64,ubuntu20,libzmq,clang,O3,pie,nostrip,OK,OK,ERR
x86_64,ubuntu20,libzmq,clang,Os,pie,strip,OK,OK,ERR
x86_64,ubuntu20,libzmq,clang,Os,pie,nostrip,OK,OK,ERR
x86_64,ubuntu20,libzmq,clang,Ofast,pie,strip,OK,OK,ERR
x86_64,ubuntu20,libzmq,clang,Ofast,pie,nostrip,OK,OK,ERR
x86_64,ubuntu20,libzmq,clang,fla,pie,strip,OK,OK,ERR
x86_64,ubuntu20,libzmq,clang,fla,pie,nostrip,OK,OK,ERR
x86_64,ubuntu20,libzmq,clang,sub,pie,strip,OK,OK,ERR
x86_64,ubuntu20,libzmq,clang,sub,pie,nostrip,OK,OK,ERR
x86_64,ubuntu20,libzmq,icx,O0,pie,strip,OK,OK,ERR
x86_64,ubuntu20,libzmq,icx,O0,pie,nostrip,OK,OK,ERR
x86_64,ubuntu20,libzmq,icx,O1,pie,strip,OK,OK,ERR
x86_64,ubuntu20,libzmq,icx,O1,pie,nostrip,OK,OK,ERR
x86_64,ubuntu20,libzmq,icx,O2,pie,strip,OK,OK,ERR
x86_64,ubuntu20,libzmq,icx,O2,pie,nostrip,OK,ERR,ERR
x86_64,ubuntu20,libzmq,icx,O3,pie,strip,OK,ERR,ERR
x86_64,ubuntu20,libzmq,icx,O3,pie,nostrip,OK,OK,ERR
x86_64,ubuntu20,libzmq,icx,Os,pie,strip,OK,OK,ERR
x86_64,ubuntu20,libzmq,icx,Os,pie,nostrip,OK,OK,ERR
x86_64,ubuntu20,libzmq,icx,Ofast,pie,strip,OK,OK,ERR
x86_64,ubuntu20,libzmq,icx,Ofast,pie,nostrip,OK,OK,ERR
x86_64,ubuntu16,lighttpd,gcc,O0,pie,strip,OK,ERR,OK
x86_64,ubuntu16,lighttpd,gcc,O0,pie,nostrip,OK,ERR,OK
x86_64,ubuntu16,lighttpd,gcc,O1,pie,strip,OK,OK,OK
x86_64,ubuntu16,lighttpd,gcc,O1,pie,nostrip,OK,OK,OK
x86_64,ubuntu16,lighttpd,gcc,O2,pie,strip,OK,OK,OK
x86_64,ubuntu16,lighttpd,gcc,O2,pie,nostrip,OK,OK,OK
x86_64,ubuntu16,lighttpd,gcc,O3,pie,strip,OK,OK,OK
x86_64,ubuntu16,lighttpd,gcc,O3,pie,nostrip,OK,OK,OK
x86_64,ubuntu16,lighttpd,gcc,Os,pie,strip,OK,OK,OK
x86_64,ubuntu16,lighttpd,gcc,Os,pie,nostrip,OK,OK,OK
x86_64,ubuntu16,lighttpd,gcc,Ofast,pie,strip,OK,OK,OK
x86_64,ubuntu16,lighttpd,gcc,Ofast,pie,nostrip,OK,OK,OK
x86_64,ubuntu16,lighttpd,clang,O0,pie,strip,OK,OK,OK
x86_64,ubuntu16,lighttpd,clang,O0,pie,nostrip,OK,OK,OK
x86_64,ubuntu16,lighttpd,clang,O1,pie,strip,OK,OK,OK
x86_64,ubuntu16,lighttpd,clang,O1,pie,nostrip,OK,OK,OK
x86_64,ubuntu16,lighttpd,clang,O2,pie,strip,OK,OK,OK
x86_64,ubuntu16,lighttpd,clang,O2,pie,nostrip,OK,OK,OK
x86_64,ubuntu16,lighttpd,clang,O3,pie,strip,OK,OK,OK
x86_64,ubuntu16,lighttpd,clang,O3,pie,nostrip,OK,OK,OK
x86_64,ubuntu16,lighttpd,clang,Os,pie,strip,OK,OK,OK
x86_64,ubuntu16,lighttpd,clang,Os,pie,nostrip,OK,OK,OK
x86_64,ubuntu16,lighttpd,clang,Ofast,pie,strip,OK,OK,OK
x86_64,ubuntu16,lighttpd,clang,Ofast,pie,nostrip,OK,OK,OK
x86_64,ubuntu20,lighttpd,gcc,O0,pie,strip,OK,ERR,OK
x86_64,ubuntu20,lighttpd,gcc,O0,pie,nostrip,OK,ERR,OK
x86_64,ubuntu20,lighttpd,gcc,O1,pie,strip,OK,ERR,OK
x86_64,ubuntu20,lighttpd,gcc,O1,pie,nostrip,OK,ERR,OK
x86_64,ubuntu20,lighttpd,gcc,O2,pie,strip,OK,ERR,OK
x86_64,ubuntu20,lighttpd,gcc,O2,pie,nostrip,OK,ERR,OK
x86_64,ubuntu20,lighttpd,gcc,O3,pie,strip,OK,ERR,OK
x86_64,ubuntu20,lighttpd,gcc,O3,pie,nostrip,OK,ERR,OK
x86_64,ubuntu20,lighttpd,gcc,Os,pie,strip,OK,ERR,OK
x86_64,ubuntu20,lighttpd,gcc,Os,pie,nostrip,OK,ERR,OK
x86_64,ubuntu20,lighttpd,gcc,Ofast,pie,strip,OK,ERR,OK
x86_64,ubuntu20,lighttpd,gcc,Ofast,pie,nostrip,OK,ERR,OK
x86_64,ubuntu20,lighttpd,clang,O0,pie,strip,OK,OK,OK
x86_64,ubuntu20,lighttpd,clang,O0,pie,nostrip,OK,OK,OK
x86_64,ubuntu20,lighttpd,clang,O1,pie,strip,OK,OK,OK
x86_64,ubuntu20,lighttpd,clang,O1,pie,nostrip,OK,OK,OK
x86_64,ubuntu20,lighttpd,clang,O2,pie,strip,OK,OK,ERR
x86_64,ubuntu20,lighttpd,clang,O2,pie,nostrip,OK,OK,ERR
x86_64,ubuntu20,lighttpd,clang,O3,pie,strip,OK,OK,ERR
x86_64,ubuntu20,lighttpd,clang,O3,pie,nostrip,OK,OK,ERR
x86_64,ubuntu20,lighttpd,clang,Os,pie,strip,OK,OK,OK
x86_64,ubuntu20,lighttpd,clang,Os,pie,nostrip,OK,OK,OK
x86_64,ubuntu20,lighttpd,clang,Ofast,pie,strip,OK,OK,ERR
x86_64,ubuntu20,lighttpd,clang,Ofast,pie,nostrip,OK,OK,ERR
x86_64,ubuntu20,lighttpd,clang,fla,pie,strip,OK,OK,OK
x86_64,ubuntu20,lighttpd,clang,fla,pie,nostrip,OK,OK,OK
x86_64,ubuntu20,lighttpd,clang,sub,pie,strip,OK,OK,OK
x86_64,ubuntu20,lighttpd,clang,sub,pie,nostrip,OK,OK,OK
x86_64,ubuntu20,lighttpd,clang,bcf,pie,strip,OK,OK,OK
x86_64,ubuntu20,lighttpd,clang,bcf,pie,nostrip,OK,OK,OK
x86_64,ubuntu20,lighttpd,icx,O0,pie,strip,OK,OK,OK
x86_64,ubuntu20,lighttpd,icx,O0,pie,nostrip,OK,OK,OK
x86_64,ubuntu20,lighttpd,icx,O1,pie,strip,OK,OK,OK
x86_64,ubuntu20,lighttpd,icx,O1,pie,nostrip,OK,OK,OK
x86_64,ubuntu20,lighttpd,icx,O2,pie,strip,OK,ERR,OK
x86_64,ubuntu20,lighttpd,icx,O2,pie,nostrip,OK,ERR,OK
x86_64,ubuntu20,lighttpd,icx,O3,pie,strip,OK,ERR,OK
x86_64,ubuntu20,lighttpd,icx,O3,pie,nostrip,OK,ERR,OK
x86_64,ubuntu20,lighttpd,icx,Os,pie,strip,OK,ERR,OK
x86_64,ubuntu20,lighttpd,icx,Os,pie,nostrip,OK,ERR,OK
x86_64,ubuntu20,lighttpd,icx,Ofast,pie,strip,OK,ERR,OK
x86_64,ubuntu20,lighttpd,icx,Ofast,pie,nostrip,OK,ERR,OK
x86_64,ubuntu16,memcached,gcc,O0,pie,strip,OK,ERR,OK
x86_64,ubuntu16,memcached,gcc,O0,pie,nostrip,OK,ERR,OK
x86_64,ubuntu16,memcached,gcc,O1,pie,strip,OK,ERR,OK
x86_64,ubuntu16,memcached,gcc,O1,pie,nostrip,OK,ERR,OK
x86_64,ubuntu16,memcached,gcc,O2,pie,strip,OK,ERR,OK
x86_64,ubuntu16,memcached,gcc,O2,pie,nostrip,OK,ERR,OK
x86_64,ubuntu16,memcached,gcc,O3,pie,strip,OK,ERR,OK
x86_64,ubuntu16,memcached,gcc,O3,pie,nostrip,OK,ERR,OK
x86_64,ubuntu16,memcached,gcc,Os,pie,strip,OK,ERR,OK
x86_64,ubuntu16,memcached,gcc,Os,pie,nostrip,OK,ERR,OK
x86_64,ubuntu16,memcached,gcc,Ofast,pie,strip,OK,ERR,OK
x86_64,ubuntu16,memcached,gcc,Ofast,pie,nostrip,OK,ERR,OK
x86_64,ubuntu16,memcached,clang,O0,pie,strip,OK,ERR,OK
x86_64,ubuntu16,memcached,clang,O0,pie,nostrip,OK,ERR,OK
x86_64,ubuntu16,memcached,clang,O1,pie,strip,OK,ERR,OK
x86_64,ubuntu16,memcached,clang,O1,pie,nostrip,OK,ERR,OK
x86_64,ubuntu16,memcached,clang,O2,pie,strip,OK,ERR,OK
x86_64,ubuntu16,memcached,clang,O2,pie,nostrip,OK,ERR,OK
x86_64,ubuntu16,memcached,clang,O3,pie,strip,OK,ERR,OK
x86_64,ubuntu16,memcached,clang,O3,pie,nostrip,OK,ERR,OK
x86_64,ubuntu16,memcached,clang,Os,pie,strip,OK,ERR,OK
x86_64,ubuntu16,memcached,clang,Os,pie,nostrip,OK,ERR,OK
x86_64,ubuntu16,memcached,clang,Ofast,pie,strip,OK,ERR,OK
x86_64,ubuntu16,memcached,clang,Ofast,pie,nostrip,OK,ERR,OK
x86_64,ubuntu20,memcached,gcc,O0,pie,strip,OK,ERR,OK
x86_64,ubuntu20,memcached,gcc,O0,pie,nostrip,OK,ERR,OK
x86_64,ubuntu20,memcached,gcc,O1,pie,strip,OK,ERR,OK
x86_64,ubuntu20,memcached,gcc,O1,pie,nostrip,OK,ERR,OK
x86_64,ubuntu20,memcached,gcc,O2,pie,strip,OK,ERR,OK
x86_64,ubuntu20,memcached,gcc,O2,pie,nostrip,OK,ERR,OK
x86_64,ubuntu20,memcached,gcc,O3,pie,strip,OK,ERR,OK
x86_64,ubuntu20,memcached,gcc,O3,pie,nostrip,OK,ERR,OK
x86_64,ubuntu20,memcached,gcc,Os,pie,strip,OK,ERR,OK
x86_64,ubuntu20,memcached,gcc,Os,pie,nostrip,OK,ERR,OK
x86_64,ubuntu20,memcached,gcc,Ofast,pie,strip,OK,ERR,OK
x86_64,ubuntu20,memcached,gcc,Ofast,pie,nostrip,OK,ERR,OK
x86_64,ubuntu20,memcached,clang,O0,pie,strip,OK,OK,OK
x86_64,ubuntu20,memcached,clang,O0,pie,nostrip,OK,OK,OK
x86_64,ubuntu20,memcached,clang,O1,pie,strip,OK,OK,OK
x86_64,ubuntu20,memcached,clang,O1,pie,nostrip,OK,OK,OK
x86_64,ubuntu20,memcached,clang,O2,pie,strip,OK,OK,OK
x86_64,ubuntu20,memcached,clang,O2,pie,nostrip,OK,OK,OK
x86_64,ubuntu20,memcached,clang,O3,pie,strip,OK,OK,OK
x86_64,ubuntu20,memcached,clang,O3,pie,nostrip,OK,OK,OK
x86_64,ubuntu20,memcached,clang,Os,pie,strip,OK,OK,OK
x86_64,ubuntu20,memcached,clang,Os,pie,nostrip,OK,OK,OK
x86_64,ubuntu20,memcached,clang,Ofast,pie,strip,OK,OK,OK
x86_64,ubuntu20,memcached,clang,Ofast,pie,nostrip,OK,OK,OK
x86_64,ubuntu20,memcached,icx,O0,pie,strip,OK,OK,OK
x86_64,ubuntu20,memcached,icx,O0,pie,nostrip,OK,OK,OK
x86_64,ubuntu20,memcached,icx,O1,pie,strip,OK,OK,OK
x86_64,ubuntu20,memcached,icx,O1,pie,nostrip,OK,OK,OK
x86_64,ubuntu20,memcached,icx,O2,pie,strip,OK,ERR,OK
x86_64,ubuntu20,memcached,icx,O2,pie,nostrip,OK,ERR,OK
x86_64,ubuntu20,memcached,icx,O3,pie,strip,OK,ERR,OK
x86_64,ubuntu20,memcached,icx,O3,pie,nostrip,OK,ERR,OK
x86_64,ubuntu20,memcached,icx,Os,pie,strip,OK,ERR,OK
x86_64,ubuntu20,memcached,icx,Os,pie,nostrip,OK,ERR,OK
x86_64,ubuntu20,memcached,icx,Ofast,pie,strip,OK,ERR,OK
x86_64,ubuntu20,memcached,icx,Ofast,pie,nostrip,OK,ERR,OK
x86_64,ubuntu16,monero,gcc,O0,pie,strip,OK,ERR,ERR
x86_64,ubuntu16,monero,gcc,O0,pie,nostrip,OK,ERR,ERR
x86_64,ubuntu16,monero,gcc,O1,pie,strip,OK,ERR,ERR
x86_64,ubuntu16,monero,gcc,O1,pie,nostrip,OK,ERR,ERR
x86_64,ubuntu16,monero,gcc,O2,pie,strip,OK,ERR,ERR
x86_64,ubuntu16,monero,gcc,O2,pie,nostrip,OK,ERR,ERR
x86_64,ubuntu16,monero,gcc,O3,pie,strip,OK,ERR,ERR
x86_64,ubuntu16,monero,gcc,O3,pie,nostrip,OK,ERR,ERR
x86_64,ubuntu16,monero,gcc,Os,pie,strip,OK,ERR,ERR
x86_64,ubuntu16,monero,gcc,Os,pie,nostrip,OK,ERR,ERR
x86_64,ubuntu16,monero,gcc,Ofast,pie,strip,OK,ERR,ERR
x86_64,ubuntu16,monero,gcc,Ofast,pie,nostrip,OK,ERR,ERR
x86_64,ubuntu16,monero,gcc,O0,nopie,strip,OK,ERR,ERR
x86_64,ubuntu16,monero,gcc,O0,nopie,nostrip,OK,ERR,ERR
x86_64,ubuntu16,monero,gcc,O1,nopie,strip,OK,ERR,ERR
x86_64,ubuntu16,monero,gcc,O1,nopie,nostrip,OK,ERR,ERR
x86_64,ubuntu16,monero,gcc,O2,nopie,strip,OK,ERR,ERR
x86_64,ubuntu16,monero,gcc,O2,nopie,nostrip,OK,ERR,ERR
x86_64,ubuntu16,monero,gcc,O3,nopie,strip,OK,ERR,ERR
x86_64,ubuntu16,monero,gcc,O3,nopie,nostrip,OK,ERR,ERR
x86_64,ubuntu16,monero,gcc,Os,nopie,strip,OK,ERR,OK
x86_64,ubuntu16,monero,gcc,Os,nopie,nostrip,OK,ERR,ERR
x86_64,ubuntu16,monero,gcc,Ofast,nopie,strip,OK,ERR,ERR
x86_64,ubuntu16,monero,gcc,Ofast,nopie,nostrip,OK,ERR,ERR
x86_64,ubuntu16,monero,clang,O0,pie,strip,OK,ERR,OK
x86_64,ubuntu16,monero,clang,O0,pie,nostrip,OK,ERR,OK
x86_64,ubuntu16,monero,clang,O0,nopie,strip,OK,ERR,ERR
x86_64,ubuntu16,monero,clang,O0,nopie,nostrip,OK,ERR,ERR
x86_64,ubuntu20,monero,gcc,O0,pie,strip,OK,ERR,ERR
x86_64,ubuntu20,monero,gcc,O0,pie,nostrip,ERR,ERR,ERR
x86_64,ubuntu20,monero,gcc,O1,pie,strip,OK,ERR,ERR
x86_64,ubuntu20,monero,gcc,O1,pie,nostrip,OK,ERR,OK
x86_64,ubuntu20,monero,gcc,O2,pie,strip,OK,ERR,ERR
x86_64,ubuntu20,monero,gcc,O2,pie,nostrip,OK,ERR,OK
x86_64,ubuntu20,monero,gcc,O3,pie,strip,OK,ERR,ERR
x86_64,ubuntu20,monero,gcc,O3,pie,nostrip,OK,ERR,OK
x86_64,ubuntu20,monero,gcc,Os,pie,strip,OK,ERR,ERR
x86_64,ubuntu20,monero,gcc,Os,pie,nostrip,OK,ERR,OK
x86_64,ubuntu20,monero,gcc,Ofast,pie,strip,OK,ERR,ERR
x86_64,ubuntu20,monero,gcc,Ofast,pie,nostrip,OK,ERR,OK
x86_64,ubuntu20,monero,gcc,O0,nopie,strip,OK,ERR,ERR
x86_64,ubuntu20,monero,gcc,O0,nopie,nostrip,OK,ERR,ERR
x86_64,ubuntu20,monero,gcc,O1,nopie,strip,OK,ERR,ERR
x86_64,ubuntu20,monero,gcc,O1,nopie,nostrip,OK,ERR,ERR
x86_64,ubuntu20,monero,gcc,O2,nopie,strip,OK,ERR,ERR
x86_64,ubuntu20,monero,gcc,O2,nopie,nostrip,OK,ERR,OK
x86_64,ubuntu20,monero,gcc,O3,nopie,strip,OK,ERR,ERR
x86_64,ubuntu20,monero,gcc,O3,nopie,nostrip,OK,ERR,OK
x86_64,ubuntu20,monero,gcc,Os,nopie,strip,OK,ERR,ERR
x86_64,ubuntu20,monero,gcc,Os,nopie,nostrip,OK,ERR,ERR
x86_64,ubuntu20,monero,gcc,Ofast,nopie,strip,OK,ERR,ERR
x86_64,ubuntu20,monero,gcc,Ofast,nopie,nostrip,OK,ERR,OK
x86_64,ubuntu20,monero,clang,O0,pie,strip,OK,ERR,ERR
x86_64,ubuntu20,monero,clang,O0,pie,nostrip,OK,ERR,ERR
x86_64,ubuntu20,monero,clang,O1,pie,strip,OK,ERR,ERR
x86_64,ubuntu20,monero,clang,O1,pie,nostrip,OK,ERR,ERR
x86_64,ubuntu20,monero,clang,O2,pie,strip,OK,ERR,ERR
x86_64,ubuntu20,monero,clang,O2,pie,nostrip,OK,ERR,ERR
x86_64,ubuntu20,monero,clang,O3,pie,strip,OK,ERR,ERR
x86_64,ubuntu20,monero,clang,O3,pie,nostrip,OK,ERR,OK
x86_64,ubuntu20,monero,clang,Os,pie,strip,OK,ERR,ERR
x86_64,ubuntu20,monero,clang,Os,pie,nostrip,OK,ERR,ERR
x86_64,ubuntu20,monero,clang,Ofast,pie,strip,OK,ERR,ERR
x86_64,ubuntu20,monero,clang,Ofast,pie,nostrip,OK,ERR,OK
x86_64,ubuntu20,monero,clang,O0,nopie,strip,ERR,ERR,ERR
x86_64,ubuntu20,monero,clang,O0,nopie,nostrip,OK,ERR,OK
x86_64,ubuntu20,monero,clang,O1,nopie,strip,OK,ERR,ERR
x86_64,ubuntu20,monero,clang,O1,nopie,nostrip,OK,ERR,ERR
x86_64,ubuntu20,monero,clang,O2,nopie,strip,OK,ERR,ERR
x86_64,ubuntu20,monero,clang,O2,nopie,nostrip,OK,ERR,ERR
x86_64,ubuntu20,monero,clang,O3,nopie,strip,OK,ERR,ERR
x86_64,ubuntu20,monero,clang,O3,nopie,nostrip,OK,ERR,ERR
x86_64,ubuntu20,monero,clang,Os,nopie,strip,OK,ERR,ERR
x86_64,ubuntu20,monero,clang,Os,nopie,nostrip,OK,ERR,ERR
x86_64,ubuntu20,monero,clang,Ofast,nopie,strip,OK,ERR,ERR
x86_64,ubuntu20,monero,clang,Ofast,nopie,nostrip,OK,ERR,OK
x86_64,ubuntu20,monero,icx,O0,pie,strip,OK,ERR,ERR
x86_64,ubuntu20,monero,icx,O0,pie,nostrip,ERR,ERR,ERR
x86_64,ubuntu20,monero,icx,O1,pie,strip,ERR,ERR,ERR
x86_64,ubuntu20,monero,icx,O1,pie,nostrip,OK,ERR,ERR
x86_64,ubuntu20,monero,icx,O2,pie,strip,OK,ERR,ERR
x86_64,ubuntu20,monero,icx,O2,pie,nostrip,OK,ERR,ERR
x86_64,ubuntu20,monero,icx,O3,pie,strip,OK,ERR,ERR
x86_64,ubuntu20,monero,icx,O3,pie,nostrip,OK,ERR,ERR
x86_64,ubuntu20,monero,icx,Os,pie,strip,OK,ERR,ERR
x86_64,ubuntu20,monero,icx,Os,pie,nostrip,OK,ERR,ERR
x86_64,ubuntu20,monero,icx,Ofast,pie,strip,OK,ERR,ERR
x86_64,ubuntu20,monero,icx,Ofast,pie,nostrip,OK,ERR,ERR
x86_64,ubuntu20,monero,icx,O0,nopie,strip,ERR,ERR,ERR
x86_64,ubuntu20,monero,icx,O0,nopie,nostrip,OK,ERR,ERR
x86_64,ubuntu20,monero,icx,O1,nopie,strip,OK,ERR,ERR
x86_64,ubuntu20,monero,icx,O1,nopie,nostrip,OK,ERR,ERR
x86_64,ubuntu20,monero,icx,O2,nopie,strip,OK,ERR,ERR
x86_64,ubuntu20,monero,icx,O2,nopie,nostrip,OK,ERR,ERR
x86_64,ubuntu20,monero,icx,O3,nopie,strip,OK,ERR,ERR
x86_64,ubuntu20,monero,icx,O3,nopie,nostrip,OK,ERR,ERR
x86_64,ubuntu20,monero,icx,Os,nopie,strip,OK,ERR,ERR
x86_64,ubuntu20,monero,icx,Os,nopie,nostrip,OK,ERR,ERR
x86_64,ubuntu20,monero,icx,Ofast,nopie,strip,OK,ERR,ERR
x86_64,ubuntu20,monero,icx,Ofast,nopie,nostrip,OK,ERR,ERR
x86_64,ubuntu16,mosh,gcc,O0,pie,strip,OK,ERR,OK
x86_64,ubuntu16,mosh,gcc,O0,pie,nostrip,OK,ERR,OK
x86_64,ubuntu16,mosh,gcc,O1,pie,strip,OK,ERR,OK
x86_64,ubuntu16,mosh,gcc,O1,pie,nostrip,OK,ERR,OK
x86_64,ubuntu16,mosh,gcc,O2,pie,strip,OK,ERR,OK
x86_64,ubuntu16,mosh,gcc,O2,pie,nostrip,OK,ERR,OK
x86_64,ubuntu16,mosh,gcc,O3,pie,strip,OK,ERR,OK
x86_64,ubuntu16,mosh,gcc,O3,pie,nostrip,OK,ERR,OK
x86_64,ubuntu16,mosh,gcc,Os,pie,strip,OK,ERR,OK
x86_64,ubuntu16,mosh,gcc,Os,pie,nostrip,OK,ERR,OK
x86_64,ubuntu16,mosh,gcc,Ofast,pie,strip,OK,ERR,OK
x86_64,ubuntu16,mosh,gcc,Ofast,pie,nostrip,OK,ERR,OK
x86_64,ubuntu16,mosh,gcc,O0,nopie,strip,OK,ERR,OK
x86_64,ubuntu16,mosh,gcc,O0,nopie,nostrip,OK,ERR,OK
x86_64,ubuntu16,mosh,gcc,O1,nopie,strip,OK,ERR,OK
x86_64,ubuntu16,mosh,gcc,O1,nopie,nostrip,OK,ERR,OK
x86_64,ubuntu16,mosh,gcc,O2,nopie,strip,OK,ERR,OK
x86_64,ubuntu16,mosh,gcc,O2,nopie,nostrip,OK,ERR,OK
x86_64,ubuntu16,mosh,gcc,O3,nopie,strip,OK,ERR,OK
x86_64,ubuntu16,mosh,gcc,O3,nopie,nostrip,OK,ERR,OK
x86_64,ubuntu16,mosh,gcc,Os,nopie,strip,OK,ERR,ERR
x86_64,ubuntu16,mosh,gcc,Os,nopie,nostrip,OK,ERR,ERR
x86_64,ubuntu16,mosh,gcc,Ofast,nopie,strip,OK,ERR,OK
x86_64,ubuntu16,mosh,gcc,Ofast,nopie,nostrip,OK,ERR,OK
x86_64,ubuntu16,mosh,clang,O0,pie,strip,OK,ERR,OK
x86_64,ubuntu16,mosh,clang,O0,pie,nostrip,OK,ERR,OK
x86_64,ubuntu16,mosh,clang,O1,pie,strip,OK,ERR,OK
x86_64,ubuntu16,mosh,clang,O1,pie,nostrip,OK,ERR,OK
x86_64,ubuntu16,mosh,clang,O2,pie,strip,OK,ERR,OK
x86_64,ubuntu16,mosh,clang,O2,pie,nostrip,OK,ERR,OK
x86_64,ubuntu16,mosh,clang,O3,pie,strip,OK,ERR,OK
x86_64,ubuntu16,mosh,clang,O3,pie,nostrip,OK,ERR,OK
x86_64,ubuntu16,mosh,clang,Os,pie,strip,OK,ERR,OK
x86_64,ubuntu16,mosh,clang,Os,pie,nostrip,OK,ERR,OK
x86_64,ubuntu16,mosh,clang,Ofast,pie,strip,OK,ERR,OK
x86_64,ubuntu16,mosh,clang,Ofast,pie,nostrip,OK,ERR,OK
x86_64,ubuntu16,mosh,clang,O0,nopie,strip,OK,ERR,ERR
x86_64,ubuntu16,mosh,clang,O0,nopie,nostrip,OK,ERR,ERR
x86_64,ubuntu16,mosh,clang,O1,nopie,strip,OK,ERR,OK
x86_64,ubuntu16,mosh,clang,O1,nopie,nostrip,OK,ERR,OK
x86_64,ubuntu16,mosh,clang,O2,nopie,strip,OK,ERR,OK
x86_64,ubuntu16,mosh,clang,O2,nopie,nostrip,OK,ERR,OK
x86_64,ubuntu16,mosh,clang,O3,nopie,strip,OK,ERR,OK
x86_64,ubuntu16,mosh,clang,O3,nopie,nostrip,OK,ERR,OK
x86_64,ubuntu16,mosh,clang,Os,nopie,strip,OK,ERR,OK
x86_64,ubuntu16,mosh,clang,Os,nopie,nostrip,OK,ERR,OK
x86_64,ubuntu16,mosh,clang,Ofast,nopie,strip,OK,ERR,OK
x86_64,ubuntu16,mosh,clang,Ofast,nopie,nostrip,OK,ERR,OK
x86_64,ubuntu20,mosh,gcc,O0,pie,strip,OK,ERR,OK
x86_64,ubuntu20,mosh,gcc,O0,pie,nostrip,OK,ERR,OK
x86_64,ubuntu20,mosh,gcc,O1,pie,strip,OK,ERR,OK
x86_64,ubuntu20,mosh,gcc,O1,pie,nostrip,OK,ERR,OK
x86_64,ubuntu20,mosh,gcc,O2,pie,strip,OK,ERR,OK
x86_64,ubuntu20,mosh,gcc,O2,pie,nostrip,OK,ERR,OK
x86_64,ubuntu20,mosh,gcc,O3,pie,strip,OK,ERR,OK
x86_64,ubuntu20,mosh,gcc,O3,pie,nostrip,OK,ERR,OK
x86_64,ubuntu20,mosh,gcc,Os,pie,strip,OK,ERR,OK
x86_64,ubuntu20,mosh,gcc,Os,pie,nostrip,OK,ERR,OK
x86_64,ubuntu20,mosh,gcc,Ofast,pie,strip,OK,ERR,OK
x86_64,ubuntu20,mosh,gcc,Ofast,pie,nostrip,OK,ERR,OK
x86_64,ubuntu20,mosh,gcc,O0,nopie,strip,OK,ERR,OK
x86_64,ubuntu20,mosh,gcc,O0,nopie,nostrip,OK,ERR,OK
x86_64,ubuntu20,mosh,gcc,O1,nopie,strip,OK,ERR,OK
x86_64,ubuntu20,mosh,gcc,O1,nopie,nostrip,OK,ERR,OK
x86_64,ubuntu20,mosh,gcc,O2,nopie,strip,OK,ERR,ERR
x86_64,ubuntu20,mosh,gcc,O2,nopie,nostrip,OK,ERR,ERR
x86_64,ubuntu20,mosh,gcc,O3,nopie,strip,OK,ERR,OK
x86_64,ubuntu20,mosh,gcc,O3,nopie,nostrip,OK,ERR,OK
x86_64,ubuntu20,mosh,gcc,Os,nopie,strip,OK,ERR,OK
x86_64,ubuntu20,mosh,gcc,Os,nopie,nostrip,OK,ERR,OK
x86_64,ubuntu20,mosh,gcc,Ofast,nopie,strip,OK,ERR,OK
x86_64,ubuntu20,mosh,gcc,Ofast,nopie,nostrip,OK,ERR,OK
x86_64,ubuntu20,mosh,clang,O0,pie,strip,OK,OK,OK
x86_64,ubuntu20,mosh,clang,O0,pie,nostrip,OK,OK,OK
x86_64,ubuntu20,mosh,clang,O1,pie,strip,OK,OK,OK
x86_64,ubuntu20,mosh,clang,O1,pie,nostrip,OK,OK,OK
x86_64,ubuntu20,mosh,clang,O2,pie,strip,OK,OK,OK
x86_64,ubuntu20,mosh,clang,O2,pie,nostrip,OK,OK,OK
x86_64,ubuntu20,mosh,clang,O3,pie,strip,OK,OK,OK
x86_64,ubuntu20,mosh,clang,O3,pie,nostrip,OK,OK,OK
x86_64,ubuntu20,mosh,clang,Os,pie,strip,OK,OK,OK
x86_64,ubuntu20,mosh,clang,Os,pie,nostrip,OK,OK,OK
x86_64,ubuntu20,mosh,clang,Ofast,pie,strip,OK,OK,OK
x86_64,ubuntu20,mosh,clang,Ofast,pie,nostrip,OK,OK,OK
x86_64,ubuntu20,mosh,clang,fla,pie,strip,OK,OK,OK
x86_64,ubuntu20,mosh,clang,fla,pie,nostrip,OK,OK,OK
x86_64,ubuntu20,mosh,clang,sub,pie,strip,OK,OK,OK
x86_64,ubuntu20,mosh,clang,sub,pie,nostrip,OK,OK,OK
x86_64,ubuntu20,mosh,clang,O0,nopie,strip,OK,ERR,OK
x86_64,ubuntu20,mosh,clang,O0,nopie,nostrip,OK,ERR,OK
x86_64,ubuntu20,mosh,clang,O1,nopie,strip,OK,ERR,OK
x86_64,ubuntu20,mosh,clang,O1,nopie,nostrip,OK,ERR,OK
x86_64,ubuntu20,mosh,clang,O2,nopie,strip,OK,ERR,OK
x86_64,ubuntu20,mosh,clang,O2,nopie,nostrip,OK,ERR,OK
x86_64,ubuntu20,mosh,clang,O3,nopie,strip,OK,ERR,OK
x86_64,ubuntu20,mosh,clang,O3,nopie,nostrip,OK,ERR,OK
x86_64,ubuntu20,mosh,clang,Os,nopie,strip,OK,ERR,OK
x86_64,ubuntu20,mosh,clang,Os,nopie,nostrip,OK,ERR,OK
x86_64,ubuntu20,mosh,clang,Ofast,nopie,strip,OK,ERR,OK
x86_64,ubuntu20,mosh,clang,Ofast,nopie,nostrip,OK,ERR,OK
x86_64,ubuntu20,mosh,clang,fla,nopie,strip,OK,ERR,ERR
x86_64,ubuntu20,mosh,clang,fla,nopie,nostrip,OK,ERR,ERR
x86_64,ubuntu20,mosh,clang,sub,nopie,strip,OK,ERR,OK
x86_64,ubuntu20,mosh,clang,sub,nopie,nostrip,OK,ERR,OK
x86_64,ubuntu20,mosh,icx,O0,pie,strip,OK,OK,OK
x86_64,ubuntu20,mosh,icx,O0,pie,nostrip,OK,OK,OK
x86_64,ubuntu20,mosh,icx,O1,pie,strip,OK,OK,OK
x86_64,ubuntu20,mosh,icx,O1,pie,nostrip,OK,OK,OK
x86_64,ubuntu20,mosh,icx,O2,pie,strip,OK,ERR,OK
x86_64,ubuntu20,mosh,icx,O2,pie,nostrip,OK,ERR,OK
x86_64,ubuntu20,mosh,icx,O3,pie,strip,OK,ERR,OK
x86_64,ubuntu20,mosh,icx,O3,pie,nostrip,OK,ERR,OK
x86_64,ubuntu20,mosh,icx,Os,pie,strip,OK,ERR,OK
x86_64,ubuntu20,mosh,icx,Os,pie,nostrip,OK,ERR,OK
x86_64,ubuntu20,mosh,icx,Ofast,pie,strip,OK,ERR,OK
x86_64,ubuntu20,mosh,icx,Ofast,pie,nostrip,OK,ERR,OK
x86_64,ubuntu20,mosh,icx,O0,nopie,strip,OK,ERR,OK
x86_64,ubuntu20,mosh,icx,O0,nopie,nostrip,OK,ERR,OK
x86_64,ubuntu20,mosh,icx,O1,nopie,strip,OK,ERR,OK
x86_64,ubuntu20,mosh,icx,O1,nopie,nostrip,OK,ERR,OK
x86_64,ubuntu20,mosh,icx,O2,nopie,strip,OK,ERR,OK
x86_64,ubuntu20,mosh,icx,O2,nopie,nostrip,OK,ERR,OK
x86_64,ubuntu20,mosh,icx,O3,nopie,strip,OK,ERR,OK
x86_64,ubuntu20,mosh,icx,O3,nopie,nostrip,OK,ERR,OK
x86_64,ubuntu20,mosh,icx,Os,nopie,strip,OK,ERR,OK
x86_64,ubuntu20,mosh,icx,Os,nopie,nostrip,OK,ERR,OK
x86_64,ubuntu20,mosh,icx,Ofast,nopie,strip,OK,ERR,OK
x86_64,ubuntu20,mosh,icx,Ofast,nopie,nostrip,OK,ERR,OK
x86_64,ubuntu16,mysql,gcc,O0,pie,strip,OK,ERR,ERR
x86_64,ubuntu16,mysql,gcc,O0,pie,nostrip,OK,ERR,ERR
x86_64,ubuntu16,mysql,gcc,O1,pie,strip,OK,ERR,ERR
x86_64,ubuntu16,mysql,gcc,O1,pie,nostrip,OK,ERR,ERR
x86_64,ubuntu16,mysql,gcc,O2,pie,strip,OK,ERR,ERR
x86_64,ubuntu16,mysql,gcc,O2,pie,nostrip,OK,ERR,ERR
x86_64,ubuntu16,mysql,gcc,O3,pie,strip,OK,ERR,ERR
x86_64,ubuntu16,mysql,gcc,O3,pie,nostrip,OK,ERR,ERR
x86_64,ubuntu16,mysql,gcc,Os,pie,strip,OK,ERR,ERR
x86_64,ubuntu16,mysql,gcc,Os,pie,nostrip,OK,ERR,ERR
x86_64,ubuntu16,mysql,gcc,O0,nopie,strip,OK,ERR,ERR
x86_64,ubuntu16,mysql,gcc,O0,nopie,nostrip,OK,ERR,ERR
x86_64,ubuntu16,mysql,gcc,O1,nopie,strip,OK,ERR,ERR
x86_64,ubuntu16,mysql,gcc,O1,nopie,nostrip,OK,ERR,ERR
x86_64,ubuntu16,mysql,gcc,O2,nopie,strip,OK,ERR,ERR
x86_64,ubuntu16,mysql,gcc,O2,nopie,nostrip,OK,ERR,ERR
x86_64,ubuntu16,mysql,gcc,O3,nopie,strip,OK,ERR,ERR
x86_64,ubuntu16,mysql,gcc,O3,nopie,nostrip,OK,ERR,ERR
x86_64,ubuntu16,mysql,gcc,Os,nopie,strip,OK,ERR,ERR
x86_64,ubuntu16,mysql,gcc,Os,nopie,nostrip,OK,ERR,ERR
x86_64,ubuntu20,mysql,gcc,O0,pie,strip,OK,ERR,ERR
x86_64,ubuntu20,mysql,gcc,O0,pie,nostrip,ERR,ERR,ERR
x86_64,ubuntu20,mysql,gcc,O1,pie,strip,OK,ERR,ERR
x86_64,ubuntu20,mysql,gcc,O1,pie,nostrip,OK,ERR,ERR
x86_64,ubuntu20,mysql,gcc,O2,pie,strip,OK,ERR,ERR
x86_64,ubuntu20,mysql,gcc,O2,pie,nostrip,OK,ERR,ERR
x86_64,ubuntu20,mysql,gcc,O3,pie,strip,OK,ERR,ERR
x86_64,ubuntu20,mysql,gcc,O3,pie,nostrip,OK,ERR,ERR
x86_64,ubuntu20,mysql,gcc,Os,pie,strip,OK,ERR,ERR
x86_64,ubuntu20,mysql,gcc,Os,pie,nostrip,OK,ERR,ERR
x86_64,ubuntu20,mysql,gcc,O0,nopie,strip,ERR,ERR,ERR
x86_64,ubuntu20,mysql,gcc,O0,nopie,nostrip,ERR,ERR,ERR
x86_64,ubuntu20,mysql,gcc,O1,nopie,strip,OK,ERR,ERR
x86_64,ubuntu20,mysql,gcc,O1,nopie,nostrip,OK,ERR,ERR
x86_64,ubuntu20,mysql,gcc,O2,nopie,strip,OK,ERR,ERR
x86_64,ubuntu20,mysql,gcc,O2,nopie,nostrip,OK,ERR,ERR
x86_64,ubuntu20,mysql,gcc,O3,nopie,strip,OK,ERR,ERR
x86_64,ubuntu20,mysql,gcc,O3,nopie,nostrip,OK,ERR,ERR
x86_64,ubuntu20,mysql,gcc,Os,nopie,strip,OK,ERR,ERR
x86_64,ubuntu20,mysql,gcc,Os,nopie,nostrip,OK,ERR,ERR
x86_64,ubuntu20,mysql,clang,O0,pie,strip,OK,ERR,ERR
x86_64,ubuntu20,mysql,clang,O0,pie,nostrip,OK,ERR,ERR
x86_64,ubuntu20,mysql,clang,O1,pie,strip,OK,ERR,ERR
x86_64,ubuntu20,mysql,clang,O1,pie,nostrip,OK,ERR,ERR
x86_64,ubuntu20,mysql,clang,O2,pie,strip,OK,ERR,ERR
x86_64,ubuntu20,mysql,clang,O2,pie,nostrip,OK,ERR,ERR
x86_64,ubuntu20,mysql,clang,O3,pie,strip,OK,ERR,ERR
x86_64,ubuntu20,mysql,clang,O3,pie,nostrip,OK,ERR,ERR
x86_64,ubuntu20,mysql,clang,Os,pie,strip,OK,ERR,ERR
x86_64,ubuntu20,mysql,clang,Os,pie,nostrip,OK,ERR,ERR
x86_64,ubuntu20,mysql,clang,fla,pie,strip,ERR,ERR,ERR
x86_64,ubuntu20,mysql,clang,fla,pie,nostrip,ERR,ERR,ERR
x86_64,ubuntu20,mysql,clang,sub,pie,strip,OK,ERR,ERR
x86_64,ubuntu20,mysql,clang,sub,pie,nostrip,OK,ERR,ERR
x86_64,ubuntu20,mysql,clang,O0,nopie,strip,OK,ERR,ERR
x86_64,ubuntu20,mysql,clang,O0,nopie,nostrip,OK,ERR,ERR
x86_64,ubuntu20,mysql,clang,O1,nopie,strip,OK,ERR,ERR
x86_64,ubuntu20,mysql,clang,O1,nopie,nostrip,OK,ERR,ERR
x86_64,ubuntu20,mysql,clang,O2,nopie,strip,OK,ERR,ERR
x86_64,ubuntu20,mysql,clang,O2,nopie,nostrip,OK,ERR,ERR
x86_64,ubuntu20,mysql,clang,O3,nopie,strip,OK,ERR,ERR
x86_64,ubuntu20,mysql,clang,O3,nopie,nostrip,OK,ERR,ERR
x86_64,ubuntu20,mysql,clang,Os,nopie,strip,OK,ERR,ERR
x86_64,ubuntu20,mysql,clang,Os,nopie,nostrip,OK,ERR,ERR
x86_64,ubuntu20,mysql,clang,fla,nopie,strip,ERR,ERR,ERR
x86_64,ubuntu20,mysql,clang,fla,nopie,nostrip,ERR,ERR,ERR
x86_64,ubuntu20,mysql,clang,sub,nopie,strip,OK,ERR,ERR
x86_64,ubuntu20,mysql,clang,sub,nopie,nostrip,OK,ERR,ERR
x86_64,ubuntu16,nginx,gcc,O0,pie,strip,OK,ERR,OK
x86_64,ubuntu16,nginx,gcc,O0,pie,nostrip,OK,ERR,OK
x86_64,ubuntu16,nginx,gcc,O1,pie,strip,OK,OK,OK
x86_64,ubuntu16,nginx,gcc,O1,pie,nostrip,OK,OK,OK
x86_64,ubuntu16,nginx,gcc,O2,pie,strip,OK,OK,OK
x86_64,ubuntu16,nginx,gcc,O2,pie,nostrip,OK,OK,OK
x86_64,ubuntu16,nginx,gcc,O3,pie,strip,OK,OK,OK
x86_64,ubuntu16,nginx,gcc,O3,pie,nostrip,OK,OK,OK
x86_64,ubuntu16,nginx,gcc,Os,pie,strip,OK,OK,OK
x86_64,ubuntu16,nginx,gcc,Os,pie,nostrip,OK,OK,OK
x86_64,ubuntu16,nginx,gcc,Ofast,pie,strip,OK,OK,OK
x86_64,ubuntu16,nginx,gcc,Ofast,pie,nostrip,OK,OK,OK
x86_64,ubuntu16,nginx,gcc,O0,nopie,strip,OK,ERR,OK
x86_64,ubuntu16,nginx,gcc,O0,nopie,nostrip,OK,ERR,OK
x86_64,ubuntu16,nginx,gcc,O1,nopie,strip,OK,ERR,OK
x86_64,ubuntu16,nginx,gcc,O1,nopie,nostrip,OK,ERR,OK
x86_64,ubuntu16,nginx,gcc,O2,nopie,strip,OK,ERR,OK
x86_64,ubuntu16,nginx,gcc,O2,nopie,nostrip,OK,ERR,OK
x86_64,ubuntu16,nginx,gcc,O3,nopie,strip,OK,ERR,OK
x86_64,ubuntu16,nginx,gcc,O3,nopie,nostrip,OK,ERR,OK
x86_64,ubuntu16,nginx,gcc,Os,nopie,strip,OK,ERR,OK
x86_64,ubuntu16,nginx,gcc,Os,nopie,nostrip,OK,ERR,OK
x86_64,ubuntu16,nginx,gcc,Ofast,nopie,strip,OK,ERR,OK
x86_64,ubuntu16,nginx,gcc,Ofast,nopie,nostrip,OK,ERR,OK
x86_64,ubuntu16,nginx,clang,O0,pie,strip,OK,OK,OK
x86_64,ubuntu16,nginx,clang,O0,pie,nostrip,OK,OK,OK
x86_64,ubuntu16,nginx,clang,O1,pie,strip,OK,OK,OK
x86_64,ubuntu16,nginx,clang,O1,pie,nostrip,OK,OK,OK
x86_64,ubuntu16,nginx,clang,O2,pie,strip,OK,OK,OK
x86_64,ubuntu16,nginx,clang,O2,pie,nostrip,OK,OK,OK
x86_64,ubuntu16,nginx,clang,O3,pie,strip,OK,OK,OK
x86_64,ubuntu16,nginx,clang,O3,pie,nostrip,OK,OK,OK
x86_64,ubuntu16,nginx,clang,Os,pie,strip,OK,OK,OK
x86_64,ubuntu16,nginx,clang,Os,pie,nostrip,OK,OK,OK
x86_64,ubuntu16,nginx,clang,Ofast,pie,strip,OK,OK,OK
x86_64,ubuntu16,nginx,clang,Ofast,pie,nostrip,OK,OK,OK
x86_64,ubuntu16,nginx,clang,O0,nopie,strip,OK,ERR,OK
x86_64,ubuntu16,nginx,clang,O0,nopie,nostrip,OK,ERR,OK
x86_64,ubuntu16,nginx,clang,O1,nopie,strip,OK,ERR,OK
x86_64,ubuntu16,nginx,clang,O1,nopie,nostrip,OK,ERR,OK
x86_64,ubuntu16,nginx,clang,O2,nopie,strip,OK,ERR,OK
x86_64,ubuntu16,nginx,clang,O2,nopie,nostrip,OK,ERR,OK
x86_64,ubuntu16,nginx,clang,O3,nopie,strip,OK,ERR,OK
x86_64,ubuntu16,nginx,clang,O3,nopie,nostrip,OK,ERR,OK
x86_64,ubuntu16,nginx,clang,Os,nopie,strip,OK,ERR,OK
x86_64,ubuntu16,nginx,clang,Os,nopie,nostrip,OK,ERR,OK
x86_64,ubuntu16,nginx,clang,Ofast,nopie,strip,OK,ERR,OK
x86_64,ubuntu16,nginx,clang,Ofast,nopie,nostrip,OK,ERR,OK
x86_64,ubuntu20,nginx,gcc,O0,pie,strip,OK,ERR,OK
x86_64,ubuntu20,nginx,gcc,O0,pie,nostrip,OK,ERR,OK
x86_64,ubuntu20,nginx,gcc,O1,pie,strip,OK,ERR,OK
x86_64,ubuntu20,nginx,gcc,O1,pie,nostrip,OK,ERR,OK
x86_64,ubuntu20,nginx,gcc,O2,pie,strip,OK,ERR,OK
x86_64,ubuntu20,nginx,gcc,O2,pie,nostrip,OK,ERR,OK
x86_64,ubuntu20,nginx,gcc,O3,pie,strip,OK,ERR,OK
x86_64,ubuntu20,nginx,gcc,O3,pie,nostrip,OK,ERR,OK
x86_64,ubuntu20,nginx,gcc,Os,pie,strip,OK,ERR,OK
x86_64,ubuntu20,nginx,gcc,Os,pie,nostrip,OK,ERR,OK
x86_64,ubuntu20,nginx,gcc,Ofast,pie,strip,OK,ERR,OK
x86_64,ubuntu20,nginx,gcc,Ofast,pie,nostrip,OK,ERR,OK
x86_64,ubuntu20,nginx,gcc,O0,nopie,strip,OK,ERR,OK
x86_64,ubuntu20,nginx,gcc,O0,nopie,nostrip,OK,ERR,OK
x86_64,ubuntu20,nginx,gcc,O1,nopie,strip,OK,ERR,OK
x86_64,ubuntu20,nginx,gcc,O1,nopie,nostrip,OK,ERR,OK
x86_64,ubuntu20,nginx,gcc,O2,nopie,strip,OK,ERR,OK
x86_64,ubuntu20,nginx,gcc,O2,nopie,nostrip,OK,ERR,OK
x86_64,ubuntu20,nginx,gcc,O3,nopie,strip,OK,ERR,OK
x86_64,ubuntu20,nginx,gcc,O3,nopie,nostrip,OK,ERR,OK
x86_64,ubuntu20,nginx,gcc,Os,nopie,strip,OK,ERR,OK
x86_64,ubuntu20,nginx,gcc,Os,nopie,nostrip,OK,ERR,OK
x86_64,ubuntu20,nginx,gcc,Ofast,nopie,strip,OK,ERR,OK
x86_64,ubuntu20,nginx,gcc,Ofast,nopie,nostrip,OK,ERR,OK
x86_64,ubuntu20,nginx,clang,O0,pie,strip,OK,OK,OK
x86_64,ubuntu20,nginx,clang,O0,pie,nostrip,OK,OK,OK
x86_64,ubuntu20,nginx,clang,O1,pie,strip,OK,OK,OK
x86_64,ubuntu20,nginx,clang,O1,pie,nostrip,OK,OK,OK
x86_64,ubuntu20,nginx,clang,O2,pie,strip,OK,OK,OK
x86_64,ubuntu20,nginx,clang,O2,pie,nostrip,OK,OK,OK
x86_64,ubuntu20,nginx,clang,O3,pie,strip,OK,OK,OK
x86_64,ubuntu20,nginx,clang,O3,pie,nostrip,OK,OK,OK
x86_64,ubuntu20,nginx,clang,Os,pie,strip,OK,OK,OK
x86_64,ubuntu20,nginx,clang,Os,pie,nostrip,OK,OK,OK
x86_64,ubuntu20,nginx,clang,Ofast,pie,strip,OK,OK,OK
x86_64,ubuntu20,nginx,clang,Ofast,pie,nostrip,OK,OK,OK
x86_64,ubuntu20,nginx,clang,fla,pie,strip,OK,OK,OK
x86_64,ubuntu20,nginx,clang,fla,pie,nostrip,OK,OK,OK
x86_64,ubuntu20,nginx,clang,sub,pie,strip,OK,OK,OK
x86_64,ubuntu20,nginx,clang,sub,pie,nostrip,OK,OK,OK
x86_64,ubuntu20,nginx,clang,bcf,pie,strip,OK,OK,OK
x86_64,ubuntu20,nginx,clang,bcf,pie,nostrip,OK,OK,OK
x86_64,ubuntu20,nginx,clang,O0,nopie,strip,OK,ERR,OK
x86_64,ubuntu20,nginx,clang,O0,nopie,nostrip,OK,ERR,OK
x86_64,ubuntu20,nginx,clang,O1,nopie,strip,OK,ERR,OK
x86_64,ubuntu20,nginx,clang,O1,nopie,nostrip,OK,ERR,OK
x86_64,ubuntu20,nginx,clang,O2,nopie,strip,OK,ERR,OK
x86_64,ubuntu20,nginx,clang,O2,nopie,nostrip,OK,ERR,OK
x86_64,ubuntu20,nginx,clang,O3,nopie,strip,OK,ERR,OK
x86_64,ubuntu20,nginx,clang,O3,nopie,nostrip,OK,ERR,OK
x86_64,ubuntu20,nginx,clang,Os,nopie,strip,OK,ERR,OK
x86_64,ubuntu20,nginx,clang,Os,nopie,nostrip,OK,ERR,OK
x86_64,ubuntu20,nginx,clang,Ofast,nopie,strip,OK,ERR,OK
x86_64,ubuntu20,nginx,clang,Ofast,nopie,nostrip,OK,ERR,OK
x86_64,ubuntu20,nginx,clang,fla,nopie,strip,OK,ERR,OK
x86_64,ubuntu20,nginx,clang,fla,nopie,nostrip,OK,ERR,OK
x86_64,ubuntu20,nginx,clang,sub,nopie,strip,OK,ERR,OK
x86_64,ubuntu20,nginx,clang,sub,nopie,nostrip,OK,ERR,OK
x86_64,ubuntu20,nginx,clang,bcf,nopie,strip,OK,ERR,OK
x86_64,ubuntu20,nginx,clang,bcf,nopie,nostrip,OK,ERR,OK
x86_64,ubuntu20,nginx,icx,O0,pie,strip,OK,OK,OK
x86_64,ubuntu20,nginx,icx,O0,pie,nostrip,OK,OK,OK
x86_64,ubuntu20,nginx,icx,O1,pie,strip,OK,OK,OK
x86_64,ubuntu20,nginx,icx,O1,pie,nostrip,OK,OK,OK
x86_64,ubuntu20,nginx,icx,O2,pie,strip,OK,ERR,ERR
x86_64,ubuntu20,nginx,icx,O2,pie,nostrip,OK,ERR,ERR
x86_64,ubuntu20,nginx,icx,O3,pie,strip,OK,ERR,ERR
x86_64,ubuntu20,nginx,icx,O3,pie,nostrip,OK,ERR,ERR
x86_64,ubuntu20,nginx,icx,Os,pie,strip,OK,ERR,OK
x86_64,ubuntu20,nginx,icx,Os,pie,nostrip,OK,ERR,OK
x86_64,ubuntu20,nginx,icx,O0,nopie,strip,OK,ERR,OK
x86_64,ubuntu20,nginx,icx,O0,nopie,nostrip,OK,ERR,OK
x86_64,ubuntu20,nginx,icx,O1,nopie,strip,OK,ERR,OK
x86_64,ubuntu20,nginx,icx,O1,nopie,nostrip,OK,ERR,OK
x86_64,ubuntu20,nginx,icx,O2,nopie,strip,OK,ERR,OK
x86_64,ubuntu20,nginx,icx,O2,nopie,nostrip,OK,ERR,OK
x86_64,ubuntu20,nginx,icx,O3,nopie,strip,OK,ERR,OK
x86_64,ubuntu20,nginx,icx,O3,nopie,nostrip,OK,ERR,OK
x86_64,ubuntu20,nginx,icx,Os,nopie,strip,OK,ERR,OK
x86_64,ubuntu20,nginx,icx,Os,nopie,nostrip,OK,ERR,OK
x86_64,ubuntu16,openssh,gcc,O0,pie,strip,OK,ERR,OK
x86_64,ubuntu16,openssh,gcc,O0,pie,nostrip,OK,ERR,ERR
x86_64,ubuntu16,openssh,gcc,O1,pie,strip,OK,OK,OK
x86_64,ubuntu16,openssh,gcc,O1,pie,nostrip,OK,ERR,ERR
x86_64,ubuntu16,openssh,gcc,O2,pie,strip,OK,OK,OK
x86_64,ubuntu16,openssh,gcc,O2,pie,nostrip,OK,OK,OK
x86_64,ubuntu16,openssh,gcc,O3,pie,strip,OK,OK,OK
x86_64,ubuntu16,openssh,gcc,O3,pie,nostrip,OK,OK,OK
x86_64,ubuntu16,openssh,gcc,Os,pie,strip,OK,OK,OK
x86_64,ubuntu16,openssh,gcc,Os,pie,nostrip,OK,ERR,ERR
x86_64,ubuntu16,openssh,gcc,Ofast,pie,strip,OK,OK,OK
x86_64,ubuntu16,openssh,gcc,Ofast,pie,nostrip,OK,OK,OK
x86_64,ubuntu16,openssh,gcc,O0,nopie,strip,OK,ERR,ERR
x86_64,ubuntu16,openssh,gcc,O0,nopie,nostrip,OK,ERR,ERR
x86_64,ubuntu16,openssh,gcc,O1,nopie,strip,OK,ERR,ERR
x86_64,ubuntu16,openssh,gcc,O1,nopie,nostrip,OK,ERR,ERR
x86_64,ubuntu16,openssh,gcc,O2,nopie,strip,OK,ERR,ERR
x86_64,ubuntu16,openssh,gcc,O2,nopie,nostrip,OK,ERR,ERR
x86_64,ubuntu16,openssh,gcc,O3,nopie,strip,OK,ERR,ERR
x86_64,ubuntu16,openssh,gcc,O3,nopie,nostrip,OK,ERR,ERR
x86_64,ubuntu16,openssh,gcc,Os,nopie,strip,OK,ERR,ERR
x86_64,ubuntu16,openssh,gcc,Os,nopie,nostrip,OK,ERR,ERR
x86_64,ubuntu16,openssh,gcc,Ofast,nopie,strip,OK,ERR,ERR
x86_64,ubuntu16,openssh,gcc,Ofast,nopie,nostrip,OK,ERR,ERR
x86_64,ubuntu16,openssh,clang,O0,pie,strip,OK,OK,OK
x86_64,ubuntu16,openssh,clang,O0,pie,nostrip,OK,ERR,ERR
x86_64,ubuntu16,openssh,clang,O1,pie,strip,OK,OK,OK
x86_64,ubuntu16,openssh,clang,O1,pie,nostrip,OK,ERR,ERR
x86_64,ubuntu16,openssh,clang,O2,pie,strip,OK,OK,OK
x86_64,ubuntu16,openssh,clang,O2,pie,nostrip,OK,OK,OK
x86_64,ubuntu16,openssh,clang,O3,pie,strip,OK,OK,OK
x86_64,ubuntu16,openssh,clang,O3,pie,nostrip,OK,OK,OK
x86_64,ubuntu16,openssh,clang,Os,pie,strip,OK,OK,OK
x86_64,ubuntu16,openssh,clang,Os,pie,nostrip,OK,OK,OK
x86_64,ubuntu16,openssh,clang,Ofast,pie,strip,OK,OK,OK
x86_64,ubuntu16,openssh,clang,Ofast,pie,nostrip,OK,OK,OK
x86_64,ubuntu16,openssh,clang,O0,nopie,strip,OK,ERR,ERR
x86_64,ubuntu16,openssh,clang,O0,nopie,nostrip,OK,ERR,ERR
x86_64,ubuntu16,openssh,clang,O1,nopie,strip,OK,ERR,ERR
x86_64,ubuntu16,openssh,clang,O1,nopie,nostrip,OK,ERR,ERR
x86_64,ubuntu16,openssh,clang,O2,nopie,strip,OK,ERR,ERR
x86_64,ubuntu16,openssh,clang,O2,nopie,nostrip,OK,ERR,ERR
x86_64,ubuntu16,openssh,clang,O3,nopie,strip,OK,ERR,ERR
x86_64,ubuntu16,openssh,clang,O3,nopie,nostrip,OK,ERR,ERR
x86_64,ubuntu16,openssh,clang,Os,nopie,strip,OK,ERR,ERR
x86_64,ubuntu16,openssh,clang,Os,nopie,nostrip,OK,ERR,ERR
x86_64,ubuntu16,openssh,clang,Ofast,nopie,strip,OK,ERR,ERR
x86_64,ubuntu16,openssh,clang,Ofast,nopie,nostrip,OK,ERR,ERR
x86_64,ubuntu20,openssh,gcc,O0,pie,strip,OK,ERR,ERR
x86_64,ubuntu20,openssh,gcc,O0,pie,nostrip,OK,ERR,ERR
x86_64,ubuntu20,openssh,gcc,O1,pie,strip,OK,ERR,ERR
x86_64,ubuntu20,openssh,gcc,O1,pie,nostrip,OK,ERR,ERR
x86_64,ubuntu20,openssh,gcc,O2,pie,strip,OK,ERR,ERR
x86_64,ubuntu20,openssh,gcc,O2,pie,nostrip,OK,ERR,ERR
x86_64,ubuntu20,openssh,gcc,O3,pie,strip,OK,ERR,ERR
x86_64,ubuntu20,openssh,gcc,O3,pie,nostrip,OK,ERR,ERR
x86_64,ubuntu20,openssh,gcc,Os,pie,strip,OK,ERR,ERR
x86_64,ubuntu20,openssh,gcc,Os,pie,nostrip,OK,ERR,ERR
x86_64,ubuntu20,openssh,gcc,Ofast,pie,strip,OK,ERR,ERR
x86_64,ubuntu20,openssh,gcc,Ofast,pie,nostrip,OK,ERR,ERR
x86_64,ubuntu20,openssh,gcc,O0,nopie,strip,OK,ERR,ERR
x86_64,ubuntu20,openssh,gcc,O0,nopie,nostrip,OK,ERR,ERR
x86_64,ubuntu20,openssh,gcc,O1,nopie,strip,OK,ERR,ERR
x86_64,ubuntu20,openssh,gcc,O1,nopie,nostrip,OK,ERR,ERR
x86_64,ubuntu20,openssh,gcc,O2,nopie,strip,OK,ERR,ERR
x86_64,ubuntu20,openssh,gcc,O2,nopie,nostrip,OK,ERR,ERR
x86_64,ubuntu20,openssh,gcc,O3,nopie,strip,OK,ERR,ERR
x86_64,ubuntu20,openssh,gcc,O3,nopie,nostrip,OK,ERR,ERR
x86_64,ubuntu20,openssh,gcc,Os,nopie,strip,OK,ERR,ERR
x86_64,ubuntu20,openssh,gcc,Os,nopie,nostrip,OK,ERR,ERR
x86_64,ubuntu20,openssh,gcc,Ofast,nopie,strip,OK,ERR,ERR
x86_64,ubuntu20,openssh,gcc,Ofast,nopie,nostrip,OK,ERR,ERR
x86_64,ubuntu20,openssh,clang,O0,pie,strip,OK,ERR,OK
x86_64,ubuntu20,openssh,clang,O0,pie,nostrip,OK,ERR,OK
x86_64,ubuntu20,openssh,clang,O1,pie,strip,OK,ERR,OK
x86_64,ubuntu20,openssh,clang,O1,pie,nostrip,OK,ERR,OK
x86_64,ubuntu20,openssh,clang,O2,pie,strip,OK,ERR,OK
x86_64,ubuntu20,openssh,clang,O2,pie,nostrip,OK,ERR,OK
x86_64,ubuntu20,openssh,clang,O3,pie,strip,OK,ERR,OK
x86_64,ubuntu20,openssh,clang,O3,pie,nostrip,OK,ERR,OK
x86_64,ubuntu20,openssh,clang,Os,pie,strip,OK,ERR,OK
x86_64,ubuntu20,openssh,clang,Os,pie,nostrip,OK,ERR,OK
x86_64,ubuntu20,openssh,clang,Ofast,pie,strip,OK,ERR,OK
x86_64,ubuntu20,openssh,clang,Ofast,pie,nostrip,OK,ERR,OK
x86_64,ubuntu20,openssh,clang,fla,pie,strip,ERR,ERR,ERR
x86_64,ubuntu20,openssh,clang,fla,pie,nostrip,ERR,ERR,ERR
x86_64,ubuntu20,openssh,clang,sub,pie,strip,OK,OK,OK
x86_64,ubuntu20,openssh,clang,sub,pie,nostrip,OK,ERR,OK
x86_64,ubuntu20,openssh,clang,bcf,pie,strip,OK,OK,OK
x86_64,ubuntu20,openssh,clang,bcf,pie,nostrip,OK,ERR,OK
x86_64,ubuntu20,openssh,clang,O0,nopie,strip,OK,ERR,ERR
x86_64,ubuntu20,openssh,clang,O0,nopie,nostrip,OK,ERR,ERR
x86_64,ubuntu20,openssh,clang,O1,nopie,strip,OK,ERR,ERR
x86_64,ubuntu20,openssh,clang,O1,nopie,nostrip,OK,ERR,ERR
x86_64,ubuntu20,openssh,clang,O2,nopie,strip,OK,ERR,ERR
x86_64,ubuntu20,openssh,clang,O2,nopie,nostrip,OK,ERR,ERR
x86_64,ubuntu20,openssh,clang,O3,nopie,strip,OK,ERR,ERR
x86_64,ubuntu20,openssh,clang,O3,nopie,nostrip,OK,ERR,ERR
x86_64,ubuntu20,openssh,clang,Os,nopie,strip,OK,ERR,ERR
x86_64,ubuntu20,openssh,clang,Os,nopie,nostrip,OK,ERR,ERR
x86_64,ubuntu20,openssh,clang,Ofast,nopie,strip,OK,ERR,ERR
x86_64,ubuntu20,openssh,clang,Ofast,nopie,nostrip,OK,ERR,ERR
x86_64,ubuntu20,openssh,clang,fla,nopie,strip,ERR,ERR,ERR
x86_64,ubuntu20,openssh,clang,fla,nopie,nostrip,ERR,ERR,ERR
x86_64,ubuntu20,openssh,clang,sub,nopie,strip,OK,ERR,ERR
x86_64,ubuntu20,openssh,clang,sub,nopie,nostrip,OK,ERR,ERR
x86_64,ubuntu20,openssh,clang,bcf,nopie,strip,OK,ERR,ERR
x86_64,ubuntu20,openssh,clang,bcf,nopie,nostrip,OK,ERR,ERR
x86_64,ubuntu20,openssh,icx,O0,pie,strip,OK,ERR,OK
x86_64,ubuntu20,openssh,icx,O0,pie,nostrip,OK,ERR,ERR
x86_64,ubuntu20,openssh,icx,O1,pie,strip,OK,ERR,OK
x86_64,ubuntu20,openssh,icx,O1,pie,nostrip,OK,ERR,ERR
x86_64,ubuntu20,openssh,icx,O2,pie,strip,OK,ERR,OK
x86_64,ubuntu20,openssh,icx,O2,pie,nostrip,OK,ERR,OK
x86_64,ubuntu20,openssh,icx,O3,pie,strip,OK,ERR,OK
x86_64,ubuntu20,openssh,icx,O3,pie,nostrip,OK,ERR,OK
x86_64,ubuntu20,openssh,icx,Os,pie,strip,OK,ERR,OK
x86_64,ubuntu20,openssh,icx,Os,pie,nostrip,OK,ERR,OK
x86_64,ubuntu20,openssh,icx,O0,nopie,strip,OK,ERR,ERR
x86_64,ubuntu20,openssh,icx,O0,nopie,nostrip,OK,ERR,ERR
x86_64,ubuntu20,openssh,icx,O1,nopie,strip,OK,ERR,ERR
x86_64,ubuntu20,openssh,icx,O1,nopie,nostrip,OK,ERR,ERR
x86_64,ubuntu20,openssh,icx,O2,nopie,strip,OK,ERR,ERR
x86_64,ubuntu20,openssh,icx,O2,nopie,nostrip,OK,ERR,ERR
x86_64,ubuntu20,openssh,icx,O3,nopie,strip,OK,ERR,ERR
x86_64,ubuntu20,openssh,icx,O3,nopie,nostrip,OK,ERR,ERR
x86_64,ubuntu20,openssh,icx,Os,nopie,strip,OK,ERR,ERR
x86_64,ubuntu20,openssh,icx,Os,nopie,nostrip,OK,ERR,ERR
x86_64,ubuntu20,poppler,gcc,O0,pie,strip,OK,ERR,ERR
x86_64,ubuntu20,poppler,gcc,O0,pie,nostrip,OK,ERR,ERR
x86_64,ubuntu20,poppler,gcc,O1,pie,strip,OK,ERR,ERR
x86_64,ubuntu20,poppler,gcc,O1,pie,nostrip,OK,ERR,ERR
x86_64,ubuntu20,poppler,gcc,O2,pie,strip,OK,ERR,ERR
x86_64,ubuntu20,poppler,gcc,O2,pie,nostrip,OK,ERR,ERR
x86_64,ubuntu20,poppler,gcc,O3,pie,strip,OK,ERR,ERR
x86_64,ubuntu20,poppler,gcc,O3,pie,nostrip,OK,ERR,ERR
x86_64,ubuntu20,poppler,gcc,Os,pie,strip,OK,ERR,ERR
x86_64,ubuntu20,poppler,gcc,Os,pie,nostrip,OK,ERR,ERR
x86_64,ubuntu20,poppler,gcc,Ofast,pie,strip,OK,ERR,ERR
x86_64,ubuntu20,poppler,gcc,Ofast,pie,nostrip,OK,ERR,ERR
x86_64,ubuntu20,poppler,clang,O0,pie,strip,OK,ERR,ERR
x86_64,ubuntu20,poppler,clang,O0,pie,nostrip,OK,ERR,ERR
x86_64,ubuntu20,poppler,clang,O1,pie,strip,OK,ERR,ERR
x86_64,ubuntu20,poppler,clang,O1,pie,nostrip,OK,ERR,ERR
x86_64,ubuntu20,poppler,clang,O2,pie,strip,OK,ERR,ERR
x86_64,ubuntu20,poppler,clang,O2,pie,nostrip,OK,ERR,ERR
x86_64,ubuntu20,poppler,clang,O3,pie,strip,OK,ERR,ERR
x86_64,ubuntu20,poppler,clang,O3,pie,nostrip,OK,ERR,ERR
x86_64,ubuntu20,poppler,clang,Os,pie,strip,OK,ERR,ERR
x86_64,ubuntu20,poppler,clang,Os,pie,nostrip,OK,ERR,ERR
x86_64,ubuntu20,poppler,clang,Ofast,pie,strip,OK,ERR,ERR
x86_64,ubuntu20,poppler,clang,Ofast,pie,nostrip,OK,ERR,ERR
x86_64,ubuntu20,poppler,icx,O0,pie,strip,OK,ERR,ERR
x86_64,ubuntu20,poppler,icx,O0,pie,nostrip,OK,ERR,ERR
x86_64,ubuntu20,poppler,icx,O1,pie,strip,OK,ERR,ERR
x86_64,ubuntu20,poppler,icx,O1,pie,nostrip,OK,ERR,ERR
x86_64,ubuntu20,poppler,icx,O2,pie,strip,OK,ERR,ERR
x86_64,ubuntu20,poppler,icx,O2,pie,nostrip,OK,ERR,ERR
x86_64,ubuntu20,poppler,icx,O3,pie,strip,OK,ERR,ERR
x86_64,ubuntu20,poppler,icx,O3,pie,nostrip,OK,ERR,ERR
x86_64,ubuntu20,poppler,icx,Os,pie,strip,OK,ERR,ERR
x86_64,ubuntu20,poppler,icx,Os,pie,nostrip,OK,ERR,ERR
x86_64,ubuntu20,poppler,icx,Ofast,pie,strip,OK,ERR,ERR
x86_64,ubuntu20,poppler,icx,Ofast,pie,nostrip,OK,ERR,ERR
x86_64,ubuntu16,proftpd,gcc,O0,pie,strip,OK,ERR,OK
x86_64,ubuntu16,proftpd,gcc,O0,pie,nostrip,OK,ERR,OK
x86_64,ubuntu16,proftpd,gcc,O1,pie,strip,OK,ERR,OK
x86_64,ubuntu16,proftpd,gcc,O1,pie,nostrip,OK,ERR,OK
x86_64,ubuntu16,proftpd,gcc,O2,pie,strip,OK,ERR,OK
x86_64,ubuntu16,proftpd,gcc,O2,pie,nostrip,OK,ERR,OK
x86_64,ubuntu16,proftpd,gcc,O3,pie,strip,OK,ERR,OK
x86_64,ubuntu16,proftpd,gcc,O3,pie,nostrip,OK,ERR,OK
x86_64,ubuntu16,proftpd,gcc,Os,pie,strip,OK,ERR,OK
x86_64,ubuntu16,proftpd,gcc,Os,pie,nostrip,OK,ERR,OK
x86_64,ubuntu16,proftpd,gcc,Ofast,pie,strip,OK,ERR,OK
x86_64,ubuntu16,proftpd,gcc,Ofast,pie,nostrip,OK,ERR,OK
x86_64,ubuntu16,proftpd,gcc,O0,nopie,strip,OK,ERR,OK
x86_64,ubuntu16,proftpd,gcc,O0,nopie,nostrip,OK,ERR,OK
x86_64,ubuntu16,proftpd,gcc,O1,nopie,strip,ERR,ERR,ERR
x86_64,ubuntu16,proftpd,gcc,O1,nopie,nostrip,ERR,ERR,ERR
x86_64,ubuntu16,proftpd,gcc,O2,nopie,strip,ERR,ERR,ERR
x86_64,ubuntu16,proftpd,gcc,O2,nopie,nostrip,ERR,ERR,ERR
x86_64,ubuntu16,proftpd,gcc,O3,nopie,strip,ERR,ERR,ERR
x86_64,ubuntu16,proftpd,gcc,O3,nopie,nostrip,ERR,ERR,ERR
x86_64,ubuntu16,proftpd,gcc,Os,nopie,strip,ERR,ERR,ERR
x86_64,ubuntu16,proftpd,gcc,Os,nopie,nostrip,ERR,ERR,ERR
x86_64,ubuntu16,proftpd,gcc,Ofast,nopie,strip,ERR,ERR,ERR
x86_64,ubuntu16,proftpd,gcc,Ofast,nopie,nostrip,ERR,ERR,ERR
x86_64,ubuntu16,proftpd,clang,O0,pie,strip,ERR,ERR,ERR
x86_64,ubuntu16,proftpd,clang,O0,pie,nostrip,ERR,ERR,ERR
x86_64,ubuntu16,proftpd,clang,O1,pie,strip,ERR,ERR,ERR
x86_64,ubuntu16,proftpd,clang,O1,pie,nostrip,ERR,ERR,ERR
x86_64,ubuntu16,proftpd,clang,O2,pie,strip,ERR,ERR,ERR
x86_64,ubuntu16,proftpd,clang,O2,pie,nostrip,ERR,ERR,ERR
x86_64,ubuntu16,proftpd,clang,O3,pie,strip,ERR,ERR,ERR
x86_64,ubuntu16,proftpd,clang,O3,pie,nostrip,ERR,ERR,ERR
x86_64,ubuntu16,proftpd,clang,Os,pie,strip,ERR,ERR,ERR
x86_64,ubuntu16,proftpd,clang,Os,pie,nostrip,ERR,ERR,ERR
x86_64,ubuntu16,proftpd,clang,Ofast,pie,strip,ERR,ERR,ERR
x86_64,ubuntu16,proftpd,clang,Ofast,pie,nostrip,ERR,ERR,ERR
x86_64,ubuntu16,proftpd,clang,O0,nopie,strip,ERR,ERR,ERR
x86_64,ubuntu16,proftpd,clang,O0,nopie,nostrip,ERR,ERR,ERR
x86_64,ubuntu16,proftpd,clang,O1,nopie,strip,ERR,ERR,ERR
x86_64,ubuntu16,proftpd,clang,O1,nopie,nostrip,ERR,ERR,ERR
x86_64,ubuntu16,proftpd,clang,O2,nopie,strip,ERR,ERR,ERR
x86_64,ubuntu16,proftpd,clang,O2,nopie,nostrip,ERR,ERR,ERR
x86_64,ubuntu16,proftpd,clang,O3,nopie,strip,ERR,ERR,ERR
x86_64,ubuntu16,proftpd,clang,O3,nopie,nostrip,ERR,ERR,ERR
x86_64,ubuntu16,proftpd,clang,Os,nopie,strip,ERR,ERR,ERR
x86_64,ubuntu16,proftpd,clang,Os,nopie,nostrip,ERR,ERR,ERR
x86_64,ubuntu16,proftpd,clang,Ofast,nopie,strip,ERR,ERR,ERR
x86_64,ubuntu16,proftpd,clang,Ofast,nopie,nostrip,ERR,ERR,ERR
x86_64,ubuntu20,proftpd,gcc,O0,pie,strip,OK,ERR,OK
x86_64,ubuntu20,proftpd,gcc,O0,pie,nostrip,OK,ERR,OK
x86_64,ubuntu20,proftpd,gcc,O1,pie,strip,OK,ERR,OK
x86_64,ubuntu20,proftpd,gcc,O1,pie,nostrip,OK,ERR,OK
x86_64,ubuntu20,proftpd,gcc,O2,pie,strip,OK,ERR,OK
x86_64,ubuntu20,proftpd,gcc,O2,pie,nostrip,OK,ERR,OK
x86_64,ubuntu20,proftpd,gcc,O3,pie,strip,OK,ERR,OK
x86_64,ubuntu20,proftpd,gcc,O3,pie,nostrip,OK,ERR,OK
x86_64,ubuntu20,proftpd,gcc,Os,pie,strip,OK,ERR,OK
x86_64,ubuntu20,proftpd,gcc,Os,pie,nostrip,OK,ERR,OK
x86_64,ubuntu20,proftpd,gcc,Ofast,pie,strip,OK,ERR,OK
x86_64,ubuntu20,proftpd,gcc,Ofast,pie,nostrip,OK,ERR,OK
x86_64,ubuntu20,proftpd,gcc,O0,nopie,strip,OK,ERR,OK
x86_64,ubuntu20,proftpd,gcc,O0,nopie,nostrip,OK,ERR,OK
x86_64,ubuntu20,proftpd,gcc,O1,nopie,strip,OK,ERR,OK
x86_64,ubuntu20,proftpd,gcc,O1,nopie,nostrip,OK,ERR,OK
x86_64,ubuntu20,proftpd,gcc,O2,nopie,strip,OK,ERR,OK
x86_64,ubuntu20,proftpd,gcc,O2,nopie,nostrip,OK,ERR,OK
x86_64,ubuntu20,proftpd,gcc,O3,nopie,strip,OK,ERR,OK
x86_64,ubuntu20,proftpd,gcc,O3,nopie,nostrip,OK,ERR,OK
x86_64,ubuntu20,proftpd,gcc,Os,nopie,strip,OK,ERR,OK
x86_64,ubuntu20,proftpd,gcc,Os,nopie,nostrip,OK,ERR,OK
x86_64,ubuntu20,proftpd,gcc,Ofast,nopie,strip,OK,ERR,OK
x86_64,ubuntu20,proftpd,gcc,Ofast,nopie,nostrip,OK,ERR,OK
x86_64,ubuntu20,proftpd,clang,O0,pie,strip,OK,ERR,OK
x86_64,ubuntu20,proftpd,clang,O0,pie,nostrip,OK,ERR,OK
x86_64,ubuntu20,proftpd,clang,O1,pie,strip,OK,ERR,OK
x86_64,ubuntu20,proftpd,clang,O1,pie,nostrip,OK,ERR,OK
x86_64,ubuntu20,proftpd,clang,O2,pie,strip,OK,ERR,OK
x86_64,ubuntu20,proftpd,clang,O2,pie,nostrip,OK,ERR,OK
x86_64,ubuntu20,proftpd,clang,O3,pie,strip,OK,ERR,OK
x86_64,ubuntu20,proftpd,clang,O3,pie,nostrip,OK,ERR,OK
x86_64,ubuntu20,proftpd,clang,Os,pie,strip,OK,ERR,OK
x86_64,ubuntu20,proftpd,clang,Os,pie,nostrip,OK,ERR,OK
x86_64,ubuntu20,proftpd,clang,Ofast,pie,strip,OK,ERR,OK
x86_64,ubuntu20,proftpd,clang,Ofast,pie,nostrip,OK,ERR,OK
x86_64,ubuntu20,proftpd,clang,fla,pie,strip,OK,ERR,OK
x86_64,ubuntu20,proftpd,clang,fla,pie,nostrip,OK,ERR,OK
x86_64,ubuntu20,proftpd,clang,sub,pie,strip,OK,ERR,OK
x86_64,ubuntu20,proftpd,clang,sub,pie,nostrip,OK,ERR,OK
x86_64,ubuntu20,proftpd,clang,bcf,pie,strip,OK,ERR,OK
x86_64,ubuntu20,proftpd,clang,bcf,pie,nostrip,OK,ERR,OK
x86_64,ubuntu20,proftpd,clang,O0,nopie,strip,OK,ERR,ERR
x86_64,ubuntu20,proftpd,clang,O0,nopie,nostrip,OK,ERR,OK
x86_64,ubuntu20,proftpd,clang,O1,nopie,strip,OK,ERR,OK
x86_64,ubuntu20,proftpd,clang,O1,nopie,nostrip,OK,ERR,OK
x86_64,ubuntu20,proftpd,clang,O2,nopie,strip,OK,ERR,ERR
x86_64,ubuntu20,proftpd,clang,O2,nopie,nostrip,OK,ERR,OK
x86_64,ubuntu20,proftpd,clang,O3,nopie,strip,OK,ERR,OK
x86_64,ubuntu20,proftpd,clang,O3,nopie,nostrip,OK,ERR,OK
x86_64,ubuntu20,proftpd,clang,Os,nopie,strip,OK,ERR,OK
x86_64,ubuntu20,proftpd,clang,Os,nopie,nostrip,OK,ERR,OK
x86_64,ubuntu20,proftpd,clang,Ofast,nopie,strip,OK,ERR,OK
x86_64,ubuntu20,proftpd,clang,Ofast,nopie,nostrip,OK,ERR,OK
x86_64,ubuntu20,proftpd,clang,fla,nopie,strip,OK,ERR,ERR
x86_64,ubuntu20,proftpd,clang,fla,nopie,nostrip,OK,ERR,ERR
x86_64,ubuntu20,proftpd,clang,sub,nopie,strip,OK,ERR,OK
x86_64,ubuntu20,proftpd,clang,sub,nopie,nostrip,OK,ERR,OK
x86_64,ubuntu20,proftpd,clang,bcf,nopie,strip,OK,ERR,OK
x86_64,ubuntu20,proftpd,clang,bcf,nopie,nostrip,OK,ERR,OK
x86_64,ubuntu20,proftpd,icx,O0,pie,strip,OK,ERR,OK
x86_64,ubuntu20,proftpd,icx,O0,pie,nostrip,OK,ERR,OK
x86_64,ubuntu20,proftpd,icx,O1,pie,strip,OK,ERR,OK
x86_64,ubuntu20,proftpd,icx,O1,pie,nostrip,OK,ERR,OK
x86_64,ubuntu20,proftpd,icx,O2,pie,strip,OK,ERR,OK
x86_64,ubuntu20,proftpd,icx,O2,pie,nostrip,OK,ERR,OK
x86_64,ubuntu20,proftpd,icx,O3,pie,strip,OK,ERR,OK
x86_64,ubuntu20,proftpd,icx,O3,pie,nostrip,OK,ERR,OK
x86_64,ubuntu20,proftpd,icx,Os,pie,strip,OK,ERR,OK
x86_64,ubuntu20,proftpd,icx,Os,pie,nostrip,OK,ERR,OK
x86_64,ubuntu20,proftpd,icx,Ofast,pie,strip,OK,ERR,OK
x86_64,ubuntu20,proftpd,icx,Ofast,pie,nostrip,OK,ERR,OK
x86_64,ubuntu20,proftpd,icx,O0,nopie,strip,OK,ERR,OK
x86_64,ubuntu20,proftpd,icx,O0,nopie,nostrip,OK,ERR,OK
x86_64,ubuntu20,proftpd,icx,O1,nopie,strip,OK,ERR,OK
x86_64,ubuntu20,proftpd,icx,O1,nopie,nostrip,OK,ERR,OK
x86_64,ubuntu20,proftpd,icx,O2,nopie,strip,OK,ERR,OK
x86_64,ubuntu20,proftpd,icx,O2,nopie,nostrip,OK,ERR,OK
x86_64,ubuntu20,proftpd,icx,O3,nopie,strip,OK,ERR,OK
x86_64,ubuntu20,proftpd,icx,O3,nopie,nostrip,OK,ERR,ERR
x86_64,ubuntu20,proftpd,icx,Os,nopie,strip,OK,ERR,OK
x86_64,ubuntu20,proftpd,icx,Os,nopie,nostrip,OK,ERR,OK
x86_64,ubuntu20,proftpd,icx,Ofast,nopie,strip,OK,ERR,OK
x86_64,ubuntu20,proftpd,icx,Ofast,nopie,nostrip,OK,ERR,OK
x86_64,ubuntu16,redis,gcc,O0,pie,strip,OK,ERR,OK
x86_64,ubuntu16,redis,gcc,O0,pie,nostrip,OK,ERR,OK
x86_64,ubuntu16,redis,gcc,O1,pie,strip,OK,ERR,OK
x86_64,ubuntu16,redis,gcc,O1,pie,nostrip,OK,ERR,OK
x86_64,ubuntu16,redis,gcc,O2,pie,strip,OK,ERR,ERR
x86_64,ubuntu16,redis,gcc,O2,pie,nostrip,OK,ERR,OK
x86_64,ubuntu16,redis,gcc,O3,pie,strip,OK,ERR,ERR
x86_64,ubuntu16,redis,gcc,O3,pie,nostrip,OK,ERR,OK
x86_64,ubuntu16,redis,gcc,Os,pie,strip,OK,OK,OK
x86_64,ubuntu16,redis,gcc,Os,pie,nostrip,OK,OK,OK
x86_64,ubuntu16,redis,gcc,Ofast,pie,strip,ERR,ERR,ERR
x86_64,ubuntu16,redis,gcc,Ofast,pie,nostrip,ERR,ERR,ERR
x86_64,ubuntu16,redis,clang,O0,pie,strip,OK,OK,OK
x86_64,ubuntu16,redis,clang,O0,pie,nostrip,OK,OK,OK
x86_64,ubuntu16,redis,clang,O1,pie,strip,OK,OK,OK
x86_64,ubuntu16,redis,clang,O1,pie,nostrip,OK,OK,OK
x86_64,ubuntu16,redis,clang,O2,pie,strip,OK,OK,OK
x86_64,ubuntu16,redis,clang,O2,pie,nostrip,OK,OK,OK
x86_64,ubuntu16,redis,clang,O3,pie,strip,OK,OK,OK
x86_64,ubuntu16,redis,clang,O3,pie,nostrip,OK,OK,OK
x86_64,ubuntu16,redis,clang,Os,pie,strip,OK,OK,OK
x86_64,ubuntu16,redis,clang,Os,pie,nostrip,OK,OK,OK
x86_64,ubuntu16,redis,clang,Ofast,pie,strip,OK,OK,OK
x86_64,ubuntu16,redis,clang,Ofast,pie,nostrip,OK,OK,OK
x86_64,ubuntu20,redis,gcc,O0,pie,strip,OK,ERR,ERR
x86_64,ubuntu20,redis,gcc,O0,pie,nostrip,OK,ERR,ERR
x86_64,ubuntu20,redis,gcc,O1,pie,strip,OK,ERR,ERR
x86_64,ubuntu20,redis,gcc,O1,pie,nostrip,OK,ERR,ERR
x86_64,ubuntu20,redis,gcc,O2,pie,strip,OK,ERR,ERR
x86_64,ubuntu20,redis,gcc,O2,pie,nostrip,OK,ERR,ERR
x86_64,ubuntu20,redis,gcc,O3,pie,strip,OK,ERR,ERR
x86_64,ubuntu20,redis,gcc,O3,pie,nostrip,OK,ERR,ERR
x86_64,ubuntu20,redis,gcc,Os,pie,strip,OK,ERR,ERR
x86_64,ubuntu20,redis,gcc,Os,pie,nostrip,OK,ERR,ERR
x86_64,ubuntu20,redis,gcc,Ofast,pie,strip,ERR,ERR,ERR
x86_64,ubuntu20,redis,gcc,Ofast,pie,nostrip,ERR,ERR,ERR
x86_64,ubuntu20,redis,clang,O0,pie,strip,OK,OK,ERR
x86_64,ubuntu20,redis,clang,O0,pie,nostrip,OK,OK,ERR
x86_64,ubuntu20,redis,clang,O1,pie,strip,OK,OK,ERR
x86_64,ubuntu20,redis,clang,O1,pie,nostrip,OK,OK,ERR
x86_64,ubuntu20,redis,clang,O2,pie,strip,OK,OK,ERR
x86_64,ubuntu20,redis,clang,O2,pie,nostrip,OK,OK,ERR
x86_64,ubuntu20,redis,clang,O3,pie,strip,OK,ERR,ERR
x86_64,ubuntu20,redis,clang,O3,pie,nostrip,OK,ERR,ERR
x86_64,ubuntu20,redis,clang,Os,pie,strip,OK,OK,ERR
x86_64,ubuntu20,redis,clang,Os,pie,nostrip,OK,OK,ERR
x86_64,ubuntu20,redis,clang,Ofast,pie,strip,ERR,ERR,ERR
x86_64,ubuntu20,redis,clang,Ofast,pie,nostrip,ERR,ERR,ERR
x86_64,ubuntu20,redis,clang,fla,pie,strip,OK,OK,ERR
x86_64,ubuntu20,redis,clang,fla,pie,nostrip,OK,OK,ERR
x86_64,ubuntu20,redis,clang,sub,pie,strip,OK,ERR,ERR
x86_64,ubuntu20,redis,clang,sub,pie,nostrip,OK,ERR,ERR
x86_64,ubuntu20,redis,clang,bcf,pie,strip,OK,ERR,ERR
x86_64,ubuntu20,redis,clang,bcf,pie,nostrip,OK,ERR,ERR
x86_64,ubuntu20,redis,icx,O0,pie,strip,OK,OK,OK
x86_64,ubuntu20,redis,icx,O0,pie,nostrip,OK,OK,OK
x86_64,ubuntu20,redis,icx,O1,pie,strip,OK,ERR,ERR
x86_64,ubuntu20,redis,icx,O1,pie,nostrip,ERR,ERR,ERR
x86_64,ubuntu20,redis,icx,O2,pie,strip,ERR,ERR,ERR
x86_64,ubuntu20,redis,icx,O2,pie,nostrip,ERR,ERR,ERR
x86_64,ubuntu20,redis,icx,O3,pie,strip,ERR,ERR,ERR
x86_64,ubuntu20,redis,icx,O3,pie,nostrip,ERR,ERR,ERR
x86_64,ubuntu20,redis,icx,Os,pie,strip,ERR,ERR,ERR
x86_64,ubuntu20,redis,icx,Os,pie,nostrip,ERR,ERR,ERR
x86_64,ubuntu20,redis,icx,Ofast,pie,strip,ERR,ERR,ERR
x86_64,ubuntu20,redis,icx,Ofast,pie,nostrip,ERR,ERR,ERR
x86_64,ubuntu16,snort3,gcc,O0,pie,strip,OK,ERR,ERR
x86_64,ubuntu16,snort3,gcc,O0,pie,nostrip,OK,ERR,ERR
x86_64,ubuntu16,snort3,gcc,O1,pie,strip,OK,ERR,ERR
x86_64,ubuntu16,snort3,gcc,O1,pie,nostrip,OK,ERR,ERR
x86_64,ubuntu16,snort3,gcc,O2,pie,strip,OK,ERR,ERR
x86_64,ubuntu16,snort3,gcc,O2,pie,nostrip,OK,ERR,ERR
x86_64,ubuntu16,snort3,gcc,O3,pie,strip,OK,ERR,ERR
x86_64,ubuntu16,snort3,gcc,O3,pie,nostrip,OK,ERR,ERR
x86_64,ubuntu16,snort3,gcc,Os,pie,strip,OK,ERR,ERR
x86_64,ubuntu16,snort3,gcc,Os,pie,nostrip,OK,ERR,ERR
x86_64,ubuntu16,snort3,gcc,Ofast,pie,strip,OK,ERR,ERR
x86_64,ubuntu16,snort3,gcc,Ofast,pie,nostrip,OK,ERR,ERR
x86_64,ubuntu16,snort3,gcc,O0,nopie,strip,OK,ERR,ERR
x86_64,ubuntu16,snort3,gcc,O0,nopie,nostrip,OK,ERR,ERR
x86_64,ubuntu16,snort3,gcc,O1,nopie,strip,OK,ERR,ERR
x86_64,ubuntu16,snort3,gcc,O1,nopie,nostrip,OK,ERR,ERR
x86_64,ubuntu16,snort3,gcc,O2,nopie,strip,OK,ERR,ERR
x86_64,ubuntu16,snort3,gcc,O2,nopie,nostrip,OK,ERR,ERR
x86_64,ubuntu16,snort3,gcc,O3,nopie,strip,OK,ERR,ERR
x86_64,ubuntu16,snort3,gcc,O3,nopie,nostrip,OK,ERR,ERR
x86_64,ubuntu16,snort3,gcc,Os,nopie,strip,OK,ERR,ERR
x86_64,ubuntu16,snort3,gcc,Os,nopie,nostrip,OK,ERR,ERR
x86_64,ubuntu16,snort3,gcc,Ofast,nopie,strip,OK,ERR,ERR
x86_64,ubuntu16,snort3,gcc,Ofast,nopie,nostrip,OK,ERR,ERR
x86_64,ubuntu16,snort3,clang,O0,pie,strip,OK,ERR,ERR
x86_64,ubuntu16,snort3,clang,O0,pie,nostrip,OK,ERR,ERR
x86_64,ubuntu16,snort3,clang,O1,pie,strip,OK,ERR,ERR
x86_64,ubuntu16,snort3,clang,O1,pie,nostrip,OK,ERR,ERR
x86_64,ubuntu16,snort3,clang,O2,pie,strip,OK,ERR,ERR
x86_64,ubuntu16,snort3,clang,O2,pie,nostrip,OK,ERR,ERR
x86_64,ubuntu16,snort3,clang,O3,pie,strip,OK,ERR,ERR
x86_64,ubuntu16,snort3,clang,O3,pie,nostrip,OK,ERR,ERR
x86_64,ubuntu16,snort3,clang,Os,pie,strip,OK,ERR,ERR
x86_64,ubuntu16,snort3,clang,Os,pie,nostrip,OK,ERR,ERR
x86_64,ubuntu16,snort3,clang,Ofast,pie,strip,OK,ERR,ERR
x86_64,ubuntu16,snort3,clang,Ofast,pie,nostrip,OK,ERR,ERR
x86_64,ubuntu16,snort3,clang,O0,nopie,strip,OK,ERR,ERR
x86_64,ubuntu16,snort3,clang,O0,nopie,nostrip,OK,ERR,ERR
x86_64,ubuntu16,snort3,clang,O1,nopie,strip,OK,ERR,ERR
x86_64,ubuntu16,snort3,clang,O1,nopie,nostrip,OK,ERR,ERR
x86_64,ubuntu16,snort3,clang,O2,nopie,strip,OK,ERR,ERR
x86_64,ubuntu16,snort3,clang,O2,nopie,nostrip,OK,ERR,ERR
x86_64,ubuntu16,snort3,clang,O3,nopie,strip,OK,ERR,ERR
x86_64,ubuntu16,snort3,clang,O3,nopie,nostrip,OK,ERR,ERR
x86_64,ubuntu16,snort3,clang,Os,nopie,strip,OK,ERR,ERR
x86_64,ubuntu16,snort3,clang,Os,nopie,nostrip,OK,ERR,ERR
x86_64,ubuntu16,snort3,clang,Ofast,nopie,strip,OK,ERR,ERR
x86_64,ubuntu16,snort3,clang,Ofast,nopie,nostrip,OK,ERR,ERR
x86_64,ubuntu20,snort3,gcc,O0,pie,strip,OK,ERR,ERR
x86_64,ubuntu20,snort3,gcc,O0,pie,nostrip,OK,ERR,ERR
x86_64,ubuntu20,snort3,gcc,O1,pie,strip,OK,ERR,ERR
x86_64,ubuntu20,snort3,gcc,O1,pie,nostrip,OK,ERR,ERR
x86_64,ubuntu20,snort3,gcc,O2,pie,strip,OK,ERR,ERR
x86_64,ubuntu20,snort3,gcc,O2,pie,nostrip,OK,ERR,ERR
x86_64,ubuntu20,snort3,gcc,O3,pie,strip,OK,ERR,ERR
x86_64,ubuntu20,snort3,gcc,O3,pie,nostrip,OK,ERR,ERR
x86_64,ubuntu20,snort3,gcc,Os,pie,strip,OK,ERR,ERR
x86_64,ubuntu20,snort3,gcc,Os,pie,nostrip,OK,ERR,ERR
x86_64,ubuntu20,snort3,gcc,Ofast,pie,strip,OK,ERR,ERR
x86_64,ubuntu20,snort3,gcc,Ofast,pie,nostrip,OK,ERR,ERR
x86_64,ubuntu20,snort3,gcc,O0,nopie,strip,OK,ERR,ERR
x86_64,ubuntu20,snort3,gcc,O0,nopie,nostrip,OK,ERR,ERR
x86_64,ubuntu20,snort3,gcc,O1,nopie,strip,OK,ERR,ERR
x86_64,ubuntu20,snort3,gcc,O1,nopie,nostrip,OK,ERR,ERR
x86_64,ubuntu20,snort3,gcc,O2,nopie,strip,OK,ERR,ERR
x86_64,ubuntu20,snort3,gcc,O2,nopie,nostrip,OK,ERR,ERR
x86_64,ubuntu20,snort3,gcc,O3,nopie,strip,ERR,ERR,ERR
x86_64,ubuntu20,snort3,gcc,O3,nopie,nostrip,OK,ERR,ERR
x86_64,ubuntu20,snort3,gcc,Os,nopie,strip,OK,ERR,ERR
x86_64,ubuntu20,snort3,gcc,Os,nopie,nostrip,OK,ERR,ERR
x86_64,ubuntu20,snort3,gcc,Ofast,nopie,strip,OK,ERR,ERR
x86_64,ubuntu20,snort3,gcc,Ofast,nopie,nostrip,OK,ERR,ERR
x86_64,ubuntu20,snort3,clang,O0,pie,strip,OK,ERR,ERR
x86_64,ubuntu20,snort3,clang,O0,pie,nostrip,OK,ERR,ERR
x86_64,ubuntu20,snort3,clang,O1,pie,strip,OK,ERR,ERR
x86_64,ubuntu20,snort3,clang,O1,pie,nostrip,OK,ERR,ERR
x86_64,ubuntu20,snort3,clang,O2,pie,strip,OK,ERR,ERR
x86_64,ubuntu20,snort3,clang,O2,pie,nostrip,OK,ERR,ERR
x86_64,ubuntu20,snort3,clang,O3,pie,strip,OK,ERR,ERR
x86_64,ubuntu20,snort3,clang,O3,pie,nostrip,OK,ERR,ERR
x86_64,ubuntu20,snort3,clang,Os,pie,strip,OK,ERR,ERR
x86_64,ubuntu20,snort3,clang,Os,pie,nostrip,OK,ERR,ERR
x86_64,ubuntu20,snort3,clang,Ofast,pie,strip,OK,ERR,ERR
x86_64,ubuntu20,snort3,clang,Ofast,pie,nostrip,OK,ERR,ERR
x86_64,ubuntu20,snort3,clang,O0,nopie,strip,OK,ERR,ERR
x86_64,ubuntu20,snort3,clang,O0,nopie,nostrip,OK,ERR,ERR
x86_64,ubuntu20,snort3,clang,O1,nopie,strip,OK,ERR,ERR
x86_64,ubuntu20,snort3,clang,O1,nopie,nostrip,OK,ERR,ERR
x86_64,ubuntu20,snort3,clang,O2,nopie,strip,OK,ERR,ERR
x86_64,ubuntu20,snort3,clang,O2,nopie,nostrip,OK,ERR,ERR
x86_64,ubuntu20,snort3,clang,O3,nopie,strip,OK,ERR,ERR
x86_64,ubuntu20,snort3,clang,O3,nopie,nostrip,ERR,ERR,ERR
x86_64,ubuntu20,snort3,clang,Os,nopie,strip,OK,ERR,ERR
x86_64,ubuntu20,snort3,clang,Os,nopie,nostrip,OK,ERR,ERR
x86_64,ubuntu20,snort3,clang,Ofast,nopie,strip,OK,ERR,ERR
x86_64,ubuntu20,snort3,clang,Ofast,nopie,nostrip,OK,ERR,ERR
x86_64,ubuntu20,snort3,icx,O0,pie,strip,OK,ERR,ERR
x86_64,ubuntu20,snort3,icx,O0,pie,nostrip,OK,ERR,ERR
x86_64,ubuntu20,snort3,icx,O1,pie,strip,OK,ERR,ERR
x86_64,ubuntu20,snort3,icx,O1,pie,nostrip,OK,ERR,ERR
x86_64,ubuntu20,snort3,icx,O2,pie,strip,OK,ERR,ERR
x86_64,ubuntu20,snort3,icx,O2,pie,nostrip,OK,ERR,ERR
x86_64,ubuntu20,snort3,icx,O3,pie,strip,OK,ERR,ERR
x86_64,ubuntu20,snort3,icx,O3,pie,nostrip,OK,ERR,ERR
x86_64,ubuntu20,snort3,icx,Os,pie,strip,OK,ERR,ERR
x86_64,ubuntu20,snort3,icx,Os,pie,nostrip,OK,ERR,ERR
x86_64,ubuntu20,snort3,icx,Ofast,pie,strip,OK,ERR,ERR
x86_64,ubuntu20,snort3,icx,Ofast,pie,nostrip,OK,ERR,ERR
x86_64,ubuntu20,snort3,icx,O0,nopie,strip,OK,ERR,ERR
x86_64,ubuntu20,snort3,icx,O0,nopie,nostrip,OK,ERR,ERR
x86_64,ubuntu20,snort3,icx,O1,nopie,strip,OK,ERR,ERR
x86_64,ubuntu20,snort3,icx,O1,nopie,nostrip,OK,ERR,ERR
x86_64,ubuntu20,snort3,icx,O2,nopie,strip,OK,ERR,ERR
x86_64,ubuntu20,snort3,icx,O2,nopie,nostrip,OK,ERR,ERR
x86_64,ubuntu20,snort3,icx,O3,nopie,strip,OK,ERR,ERR
x86_64,ubuntu20,snort3,icx,O3,nopie,nostrip,ERR,ERR,ERR
x86_64,ubuntu20,snort3,icx,Os,nopie,strip,OK,ERR,ERR
x86_64,ubuntu20,snort3,icx,Os,nopie,nostrip,ERR,ERR,ERR
x86_64,ubuntu20,snort3,icx,Ofast,nopie,strip,OK,ERR,ERR
x86_64,ubuntu20,snort3,icx,Ofast,nopie,nostrip,OK,ERR,ERR
x86_64,ubuntu16,vim,gcc,O0,pie,strip,OK,ERR,ERR
x86_64,ubuntu16,vim,gcc,O0,pie,nostrip,OK,ERR,ERR
x86_64,ubuntu16,vim,gcc,O1,pie,strip,OK,OK,ERR
x86_64,ubuntu16,vim,gcc,O1,pie,nostrip,OK,OK,ERR
x86_64,ubuntu16,vim,gcc,O2,pie,strip,OK,ERR,ERR
x86_64,ubuntu16,vim,gcc,O2,pie,nostrip,OK,ERR,ERR
x86_64,ubuntu16,vim,gcc,O3,pie,strip,OK,ERR,ERR
x86_64,ubuntu16,vim,gcc,O3,pie,nostrip,OK,ERR,ERR
x86_64,ubuntu16,vim,gcc,Os,pie,strip,OK,ERR,ERR
x86_64,ubuntu16,vim,gcc,Os,pie,nostrip,OK,ERR,ERR
x86_64,ubuntu16,vim,gcc,Ofast,pie,strip,OK,ERR,ERR
x86_64,ubuntu16,vim,gcc,Ofast,pie,nostrip,OK,ERR,ERR
x86_64,ubuntu16,vim,gcc,O0,nopie,strip,OK,ERR,ERR
x86_64,ubuntu16,vim,gcc,O0,nopie,nostrip,OK,ERR,ERR
x86_64,ubuntu16,vim,gcc,O1,nopie,strip,OK,ERR,ERR
x86_64,ubuntu16,vim,gcc,O1,nopie,nostrip,OK,ERR,ERR
x86_64,ubuntu16,vim,gcc,O2,nopie,strip,OK,ERR,ERR
x86_64,ubuntu16,vim,gcc,O2,nopie,nostrip,OK,ERR,ERR
x86_64,ubuntu16,vim,gcc,O3,nopie,strip,OK,ERR,ERR
x86_64,ubuntu16,vim,gcc,O3,nopie,nostrip,OK,ERR,ERR
x86_64,ubuntu16,vim,gcc,Os,nopie,strip,OK,ERR,ERR
x86_64,ubuntu16,vim,gcc,Os,nopie,nostrip,OK,ERR,ERR
x86_64,ubuntu16,vim,gcc,Ofast,nopie,strip,OK,ERR,ERR
x86_64,ubuntu16,vim,gcc,Ofast,nopie,nostrip,OK,ERR,ERR
x86_64,ubuntu16,vim,clang,O0,pie,strip,OK,OK,ERR
x86_64,ubuntu16,vim,clang,O0,pie,nostrip,OK,ERR,ERR
x86_64,ubuntu16,vim,clang,O1,pie,strip,OK,ERR,ERR
x86_64,ubuntu16,vim,clang,O1,pie,nostrip,OK,ERR,ERR
x86_64,ubuntu16,vim,clang,O2,pie,strip,OK,ERR,ERR
x86_64,ubuntu16,vim,clang,O2,pie,nostrip,OK,ERR,ERR
x86_64,ubuntu16,vim,clang,O3,pie,strip,OK,ERR,ERR
x86_64,ubuntu16,vim,clang,O3,pie,nostrip,OK,ERR,ERR
x86_64,ubuntu16,vim,clang,Os,pie,strip,OK,ERR,ERR
x86_64,ubuntu16,vim,clang,Os,pie,nostrip,OK,ERR,ERR
x86_64,ubuntu16,vim,clang,Ofast,pie,strip,OK,ERR,ERR
x86_64,ubuntu16,vim,clang,Ofast,pie,nostrip,OK,ERR,ERR
x86_64,ubuntu16,vim,clang,O0,nopie,strip,OK,ERR,ERR
x86_64,ubuntu16,vim,clang,O0,nopie,nostrip,OK,ERR,ERR
x86_64,ubuntu16,vim,clang,O1,nopie,strip,OK,ERR,ERR
x86_64,ubuntu16,vim,clang,O1,nopie,nostrip,OK,ERR,ERR
x86_64,ubuntu16,vim,clang,O2,nopie,strip,OK,ERR,ERR
x86_64,ubuntu16,vim,clang,O2,nopie,nostrip,OK,ERR,ERR
x86_64,ubuntu16,vim,clang,O3,nopie,strip,OK,ERR,ERR
x86_64,ubuntu16,vim,clang,O3,nopie,nostrip,OK,ERR,ERR
x86_64,ubuntu16,vim,clang,Os,nopie,strip,OK,ERR,ERR
x86_64,ubuntu16,vim,clang,Os,nopie,nostrip,OK,ERR,ERR
x86_64,ubuntu16,vim,clang,Ofast,nopie,strip,OK,ERR,ERR
x86_64,ubuntu16,vim,clang,Ofast,nopie,nostrip,OK,ERR,ERR
x86_64,ubuntu20,vim,gcc,O0,pie,strip,OK,ERR,OK
x86_64,ubuntu20,vim,gcc,O0,pie,nostrip,OK,ERR,OK
x86_64,ubuntu20,vim,gcc,O1,pie,strip,OK,ERR,OK
x86_64,ubuntu20,vim,gcc,O1,pie,nostrip,OK,ERR,OK
x86_64,ubuntu20,vim,gcc,O2,pie,strip,OK,ERR,OK
x86_64,ubuntu20,vim,gcc,O2,pie,nostrip,OK,ERR,OK
x86_64,ubuntu20,vim,gcc,O3,pie,strip,OK,ERR,OK
x86_64,ubuntu20,vim,gcc,O3,pie,nostrip,OK,ERR,OK
x86_64,ubuntu20,vim,gcc,Os,pie,strip,OK,ERR,OK
x86_64,ubuntu20,vim,gcc,Os,pie,nostrip,OK,ERR,OK
x86_64,ubuntu20,vim,gcc,Ofast,pie,strip,OK,ERR,OK
x86_64,ubuntu20,vim,gcc,Ofast,pie,nostrip,OK,ERR,OK
x86_64,ubuntu20,vim,gcc,O0,nopie,strip,OK,ERR,ERR
x86_64,ubuntu20,vim,gcc,O0,nopie,nostrip,OK,ERR,ERR
x86_64,ubuntu20,vim,gcc,O1,nopie,strip,OK,ERR,OK
x86_64,ubuntu20,vim,gcc,O1,nopie,nostrip,OK,ERR,OK
x86_64,ubuntu20,vim,gcc,O2,nopie,strip,OK,ERR,ERR
x86_64,ubuntu20,vim,gcc,O2,nopie,nostrip,OK,ERR,ERR
x86_64,ubuntu20,vim,gcc,O3,nopie,strip,OK,ERR,ERR
x86_64,ubuntu20,vim,gcc,O3,nopie,nostrip,OK,ERR,ERR
x86_64,ubuntu20,vim,gcc,Os,nopie,strip,OK,ERR,OK
x86_64,ubuntu20,vim,gcc,Os,nopie,nostrip,OK,ERR,OK
x86_64,ubuntu20,vim,gcc,Ofast,nopie,strip,OK,ERR,ERR
x86_64,ubuntu20,vim,gcc,Ofast,nopie,nostrip,OK,ERR,ERR
x86_64,ubuntu20,vim,clang,O0,pie,strip,OK,OK,OK
x86_64,ubuntu20,vim,clang,O0,pie,nostrip,OK,OK,OK
x86_64,ubuntu20,vim,clang,O1,pie,strip,OK,OK,OK
x86_64,ubuntu20,vim,clang,O1,pie,nostrip,OK,OK,OK
x86_64,ubuntu20,vim,clang,O2,pie,strip,OK,OK,OK
x86_64,ubuntu20,vim,clang,O2,pie,nostrip,OK,OK,OK
x86_64,ubuntu20,vim,clang,O3,pie,strip,OK,OK,OK
x86_64,ubuntu20,vim,clang,O3,pie,nostrip,OK,OK,OK
x86_64,ubuntu20,vim,clang,Os,pie,strip,OK,OK,OK
x86_64,ubuntu20,vim,clang,Os,pie,nostrip,OK,OK,OK
x86_64,ubuntu20,vim,clang,Ofast,pie,strip,OK,OK,OK
x86_64,ubuntu20,vim,clang,Ofast,pie,nostrip,OK,OK,OK
x86_64,ubuntu20,vim,clang,fla,pie,strip,ERR,ERR,ERR
x86_64,ubuntu20,vim,clang,fla,pie,nostrip,ERR,ERR,ERR
x86_64,ubuntu20,vim,clang,sub,pie,strip,OK,OK,OK
x86_64,ubuntu20,vim,clang,sub,pie,nostrip,OK,OK,OK
x86_64,ubuntu20,vim,clang,bcf,pie,strip,OK,OK,ERR
x86_64,ubuntu20,vim,clang,bcf,pie,nostrip,OK,OK,ERR
x86_64,ubuntu20,vim,clang,O0,nopie,strip,OK,ERR,ERR
x86_64,ubuntu20,vim,clang,O0,nopie,nostrip,OK,ERR,ERR
x86_64,ubuntu20,vim,clang,O1,nopie,strip,OK,ERR,OK
x86_64,ubuntu20,vim,clang,O1,nopie,nostrip,OK,ERR,OK
x86_64,ubuntu20,vim,clang,O2,nopie,strip,OK,ERR,ERR
x86_64,ubuntu20,vim,clang,O2,nopie,nostrip,OK,ERR,ERR
x86_64,ubuntu20,vim,clang,O3,nopie,strip,OK,ERR,ERR
x86_64,ubuntu20,vim,clang,O3,nopie,nostrip,OK,ERR,ERR
x86_64,ubuntu20,vim,clang,Os,nopie,strip,OK,ERR,OK
x86_64,ubuntu20,vim,clang,Os,nopie,nostrip,OK,ERR,OK
x86_64,ubuntu20,vim,clang,Ofast,nopie,strip,OK,ERR,OK
x86_64,ubuntu20,vim,clang,Ofast,nopie,nostrip,OK,ERR,OK
x86_64,ubuntu20,vim,clang,fla,nopie,strip,ERR,ERR,ERR
x86_64,ubuntu20,vim,clang,fla,nopie,nostrip,ERR,ERR,ERR
x86_64,ubuntu20,vim,clang,sub,nopie,strip,OK,ERR,ERR
x86_64,ubuntu20,vim,clang,sub,nopie,nostrip,OK,ERR,ERR
x86_64,ubuntu20,vim,clang,bcf,nopie,strip,OK,ERR,ERR
x86_64,ubuntu20,vim,clang,bcf,nopie,nostrip,OK,ERR,ERR
x86_64,ubuntu20,vim,icx,O0,pie,strip,OK,OK,ERR
x86_64,ubuntu20,vim,icx,O0,pie,nostrip,OK,OK,ERR
x86_64,ubuntu20,vim,icx,O1,pie,strip,OK,OK,ERR
x86_64,ubuntu20,vim,icx,O1,pie,nostrip,OK,OK,ERR
x86_64,ubuntu20,vim,icx,O2,pie,strip,OK,ERR,ERR
x86_64,ubuntu20,vim,icx,O2,pie,nostrip,OK,ERR,ERR
x86_64,ubuntu20,vim,icx,O3,pie,strip,OK,ERR,ERR
x86_64,ubuntu20,vim,icx,O3,pie,nostrip,OK,ERR,ERR
x86_64,ubuntu20,vim,icx,Os,pie,strip,OK,ERR,ERR
x86_64,ubuntu20,vim,icx,Os,pie,nostrip,OK,ERR,ERR
x86_64,ubuntu20,vim,icx,Ofast,pie,strip,OK,ERR,ERR
x86_64,ubuntu20,vim,icx,Ofast,pie,nostrip,OK,ERR,ERR
x86_64,ubuntu20,vim,icx,O0,nopie,strip,OK,ERR,ERR
x86_64,ubuntu20,vim,icx,O0,nopie,nostrip,OK,ERR,ERR
x86_64,ubuntu20,vim,icx,O1,nopie,strip,OK,ERR,ERR
x86_64,ubuntu20,vim,icx,O1,nopie,nostrip,OK,ERR,ERR
x86_64,ubuntu20,vim,icx,O2,nopie,strip,OK,ERR,ERR
x86_64,ubuntu20,vim,icx,O2,nopie,nostrip,OK,ERR,ERR
x86_64,ubuntu20,vim,icx,O3,nopie,strip,OK,ERR,ERR
x86_64,ubuntu20,vim,icx,O3,nopie,nostrip,OK,ERR,ERR
x86_64,ubuntu20,vim,icx,Os,nopie,strip,OK,ERR,ERR
x86_64,ubuntu20,vim,icx,Os,nopie,nostrip,OK,ERR,ERR
x86_64,ubuntu20,vim,icx,Ofast,nopie,strip,OK,ERR,ERR
x86_64,ubuntu20,vim,icx,Ofast,nopie,nostrip,OK,ERR,ERR
x86_64,ubuntu20,unrealircd,gcc,O0,pie,strip,OK,ERR,OK
x86_64,ubuntu20,unrealircd,gcc,O0,pie,nostrip,OK,ERR,OK
x86_64,ubuntu20,unrealircd,gcc,O1,pie,strip,OK,ERR,OK
x86_64,ubuntu20,unrealircd,gcc,O1,pie,nostrip,OK,ERR,OK
x86_64,ubuntu20,unrealircd,gcc,O2,pie,strip,OK,ERR,OK
x86_64,ubuntu20,unrealircd,gcc,O2,pie,nostrip,OK,ERR,OK
x86_64,ubuntu20,unrealircd,gcc,O3,pie,strip,OK,ERR,OK
x86_64,ubuntu20,unrealircd,gcc,O3,pie,nostrip,OK,ERR,OK
x86_64,ubuntu20,unrealircd,gcc,Os,pie,strip,OK,ERR,OK
x86_64,ubuntu20,unrealircd,gcc,Os,pie,nostrip,OK,ERR,OK
x86_64,ubuntu20,unrealircd,gcc,Ofast,pie,strip,OK,ERR,OK
x86_64,ubuntu20,unrealircd,gcc,Ofast,pie,nostrip,OK,ERR,OK
x86_64,ubuntu20,unrealircd,gcc,O0,nopie,strip,OK,ERR,ERR
x86_64,ubuntu20,unrealircd,gcc,O0,nopie,nostrip,OK,ERR,ERR
x86_64,ubuntu20,unrealircd,gcc,O1,nopie,strip,OK,ERR,OK
x86_64,ubuntu20,unrealircd,gcc,O1,nopie,nostrip,OK,ERR,OK
x86_64,ubuntu20,unrealircd,gcc,O2,nopie,strip,OK,ERR,OK
x86_64,ubuntu20,unrealircd,gcc,O2,nopie,nostrip,OK,ERR,OK
x86_64,ubuntu20,unrealircd,gcc,O3,nopie,strip,OK,ERR,OK
x86_64,ubuntu20,unrealircd,gcc,O3,nopie,nostrip,OK,ERR,OK
x86_64,ubuntu20,unrealircd,gcc,Os,nopie,strip,OK,ERR,OK
x86_64,ubuntu20,unrealircd,gcc,Os,nopie,nostrip,OK,ERR,OK
x86_64,ubuntu20,unrealircd,gcc,Ofast,nopie,strip,OK,ERR,OK
x86_64,ubuntu20,unrealircd,gcc,Ofast,nopie,nostrip,OK,ERR,OK
x86_64,ubuntu20,unrealircd,clang,O0,pie,strip,OK,ERR,OK
x86_64,ubuntu20,unrealircd,clang,O0,pie,nostrip,OK,ERR,OK
x86_64,ubuntu20,unrealircd,clang,O1,pie,strip,OK,ERR,OK
x86_64,ubuntu20,unrealircd,clang,O1,pie,nostrip,OK,ERR,OK
x86_64,ubuntu20,unrealircd,clang,O2,pie,strip,OK,ERR,OK
x86_64,ubuntu20,unrealircd,clang,O2,pie,nostrip,OK,ERR,OK
x86_64,ubuntu20,unrealircd,clang,O3,pie,strip,OK,ERR,OK
x86_64,ubuntu20,unrealircd,clang,O3,pie,nostrip,OK,ERR,OK
x86_64,ubuntu20,unrealircd,clang,Os,pie,strip,OK,ERR,OK
x86_64,ubuntu20,unrealircd,clang,Os,pie,nostrip,OK,ERR,OK
x86_64,ubuntu20,unrealircd,clang,Ofast,pie,strip,OK,ERR,OK
x86_64,ubuntu20,unrealircd,clang,Ofast,pie,nostrip,OK,ERR,OK
x86_64,ubuntu20,unrealircd,clang,fla,pie,strip,OK,ERR,OK
x86_64,ubuntu20,unrealircd,clang,fla,pie,nostrip,OK,ERR,OK
x86_64,ubuntu20,unrealircd,clang,sub,pie,strip,OK,ERR,OK
x86_64,ubuntu20,unrealircd,clang,sub,pie,nostrip,OK,ERR,OK
x86_64,ubuntu20,unrealircd,clang,bcf,pie,strip,OK,ERR,OK
x86_64,ubuntu20,unrealircd,clang,bcf,pie,nostrip,OK,ERR,OK
x86_64,ubuntu20,unrealircd,clang,O0,nopie,strip,OK,ERR,OK
x86_64,ubuntu20,unrealircd,clang,O0,nopie,nostrip,OK,ERR,OK
x86_64,ubuntu20,unrealircd,clang,O1,nopie,strip,OK,ERR,OK
x86_64,ubuntu20,unrealircd,clang,O1,nopie,nostrip,OK,ERR,OK
x86_64,ubuntu20,unrealircd,clang,O2,nopie,strip,OK,ERR,OK
x86_64,ubuntu20,unrealircd,clang,O2,nopie,nostrip,OK,ERR,OK
x86_64,ubuntu20,unrealircd,clang,O3,nopie,strip,OK,ERR,OK
x86_64,ubuntu20,unrealircd,clang,O3,nopie,nostrip,OK,ERR,OK
x86_64,ubuntu20,unrealircd,clang,Os,nopie,strip,OK,ERR,OK
x86_64,ubuntu20,unrealircd,clang,Os,nopie,nostrip,OK,ERR,OK
x86_64,ubuntu20,unrealircd,clang,Ofast,nopie,strip,OK,ERR,OK
x86_64,ubuntu20,unrealircd,clang,Ofast,nopie,nostrip,OK,ERR,OK
x86_64,ubuntu20,unrealircd,clang,fla,nopie,strip,OK,ERR,ERR
x86_64,ubuntu20,unrealircd,clang,fla,nopie,nostrip,OK,ERR,ERR
x86_64,ubuntu20,unrealircd,clang,sub,nopie,strip,OK,ERR,OK
x86_64,ubuntu20,unrealircd,clang,sub,nopie,nostrip,OK,ERR,OK
x86_64,ubuntu20,unrealircd,clang,bcf,nopie,strip,OK,ERR,OK
x86_64,ubuntu20,unrealircd,clang,bcf,nopie,nostrip,OK,ERR,OK
x86_64,ubuntu20,unrealircd,icx,O0,pie,strip,OK,ERR,OK
x86_64,ubuntu20,unrealircd,icx,O0,pie,nostrip,OK,ERR,OK
x86_64,ubuntu20,unrealircd,icx,O1,pie,strip,OK,ERR,OK
x86_64,ubuntu20,unrealircd,icx,O1,pie,nostrip,OK,ERR,OK
x86_64,ubuntu20,unrealircd,icx,O2,pie,strip,OK,ERR,OK
x86_64,ubuntu20,unrealircd,icx,O2,pie,nostrip,OK,ERR,OK
x86_64,ubuntu20,unrealircd,icx,O3,pie,strip,OK,ERR,OK
x86_64,ubuntu20,unrealircd,icx,O3,pie,nostrip,OK,ERR,OK
x86_64,ubuntu20,unrealircd,icx,Os,pie,strip,OK,ERR,OK
x86_64,ubuntu20,unrealircd,icx,Os,pie,nostrip,OK,ERR,OK
x86_64,ubuntu20,unrealircd,icx,Ofast,pie,strip,OK,ERR,OK
x86_64,ubuntu20,unrealircd,icx,Ofast,pie,nostrip,OK,ERR,OK
x86_64,ubuntu20,unrealircd,icx,O0,nopie,strip,OK,ERR,OK
x86_64,ubuntu20,unrealircd,icx,O0,nopie,nostrip,OK,ERR,OK
x86_64,ubuntu20,unrealircd,icx,O1,nopie,strip,OK,ERR,OK
x86_64,ubuntu20,unrealircd,icx,O1,nopie,nostrip,OK,ERR,OK
x86_64,ubuntu20,unrealircd,icx,O2,nopie,strip,OK,ERR,OK
x86_64,ubuntu20,unrealircd,icx,O2,nopie,nostrip,OK,ERR,OK
x86_64,ubuntu20,unrealircd,icx,O3,nopie,strip,OK,ERR,OK
x86_64,ubuntu20,unrealircd,icx,O3,nopie,nostrip,OK,ERR,OK
x86_64,ubuntu20,unrealircd,icx,Os,nopie,strip,OK,ERR,OK
x86_64,ubuntu20,unrealircd,icx,Os,nopie,nostrip,OK,ERR,OK
x86_64,ubuntu20,unrealircd,icx,Ofast,nopie,strip,OK,ERR,OK
x86_64,ubuntu20,unrealircd,icx,Ofast,nopie,nostrip,OK,ERR,OK
x86_64,ubuntu16,zip,gcc,O0,pie,strip,OK,OK,OK
x86_64,ubuntu16,zip,gcc,O0,pie,nostrip,OK,OK,OK
x86_64,ubuntu16,zip,gcc,O1,pie,strip,OK,OK,OK
x86_64,ubuntu16,zip,gcc,O1,pie,nostrip,OK,OK,OK
x86_64,ubuntu16,zip,gcc,O2,pie,strip,OK,OK,OK
x86_64,ubuntu16,zip,gcc,O2,pie,nostrip,OK,OK,OK
x86_64,ubuntu16,zip,gcc,O3,pie,strip,OK,OK,OK
x86_64,ubuntu16,zip,gcc,O3,pie,nostrip,OK,OK,OK
x86_64,ubuntu16,zip,gcc,Os,pie,strip,OK,OK,ERR
x86_64,ubuntu16,zip,gcc,Os,pie,nostrip,OK,OK,ERR
x86_64,ubuntu16,zip,gcc,Ofast,pie,strip,OK,OK,OK
x86_64,ubuntu16,zip,gcc,Ofast,pie,nostrip,OK,OK,OK
x86_64,ubuntu16,zip,gcc,O0,nopie,strip,OK,ERR,OK
x86_64,ubuntu16,zip,gcc,O0,nopie,nostrip,OK,ERR,OK
x86_64,ubuntu16,zip,gcc,O1,nopie,strip,OK,ERR,OK
x86_64,ubuntu16,zip,gcc,O1,nopie,nostrip,OK,ERR,OK
x86_64,ubuntu16,zip,gcc,O2,nopie,strip,OK,ERR,OK
x86_64,ubuntu16,zip,gcc,O2,nopie,nostrip,OK,ERR,OK
x86_64,ubuntu16,zip,gcc,O3,nopie,strip,ERR,ERR,ERR
x86_64,ubuntu16,zip,gcc,O3,nopie,nostrip,ERR,ERR,ERR
x86_64,ubuntu16,zip,gcc,Os,nopie,strip,ERR,ERR,ERR
x86_64,ubuntu16,zip,gcc,Os,nopie,nostrip,ERR,ERR,ERR
x86_64,ubuntu16,zip,gcc,Ofast,nopie,strip,ERR,ERR,ERR
x86_64,ubuntu16,zip,gcc,Ofast,nopie,nostrip,ERR,ERR,ERR
x86_64,ubuntu16,zip,clang,O0,pie,strip,ERR,ERR,ERR
x86_64,ubuntu16,zip,clang,O0,pie,nostrip,ERR,ERR,ERR
x86_64,ubuntu16,zip,clang,O1,pie,strip,OK,OK,OK
x86_64,ubuntu16,zip,clang,O1,pie,nostrip,OK,OK,OK
x86_64,ubuntu16,zip,clang,O2,pie,strip,OK,OK,OK
x86_64,ubuntu16,zip,clang,O2,pie,nostrip,OK,OK,OK
x86_64,ubuntu16,zip,clang,O3,pie,strip,OK,OK,OK
x86_64,ubuntu16,zip,clang,O3,pie,nostrip,OK,OK,OK
x86_64,ubuntu16,zip,clang,Os,pie,strip,OK,OK,OK
x86_64,ubuntu16,zip,clang,Os,pie,nostrip,OK,OK,OK
x86_64,ubuntu16,zip,clang,Ofast,pie,strip,OK,OK,OK
x86_64,ubuntu16,zip,clang,Ofast,pie,nostrip,OK,OK,OK
x86_64,ubuntu16,zip,clang,O0,nopie,strip,ERR,ERR,ERR
x86_64,ubuntu16,zip,clang,O0,nopie,nostrip,ERR,ERR,ERR
x86_64,ubuntu16,zip,clang,O1,nopie,strip,OK,ERR,OK
x86_64,ubuntu16,zip,clang,O1,nopie,nostrip,OK,ERR,OK
x86_64,ubuntu16,zip,clang,O2,nopie,strip,OK,ERR,OK
x86_64,ubuntu16,zip,clang,O2,nopie,nostrip,OK,ERR,OK
x86_64,ubuntu16,zip,clang,O3,nopie,strip,OK,ERR,OK
x86_64,ubuntu16,zip,clang,O3,nopie,nostrip,OK,ERR,OK
x86_64,ubuntu16,zip,clang,Os,nopie,strip,OK,ERR,OK
x86_64,ubuntu16,zip,clang,Os,nopie,nostrip,OK,ERR,OK
x86_64,ubuntu16,zip,clang,Ofast,nopie,strip,OK,ERR,OK
x86_64,ubuntu16,zip,clang,Ofast,nopie,nostrip,OK,ERR,OK
x86_64,ubuntu20,zip,gcc,O0,pie,strip,OK,ERR,OK
x86_64,ubuntu20,zip,gcc,O0,pie,nostrip,OK,ERR,OK
x86_64,ubuntu20,zip,gcc,O1,pie,strip,OK,ERR,OK
x86_64,ubuntu20,zip,gcc,O1,pie,nostrip,OK,ERR,OK
x86_64,ubuntu20,zip,gcc,O2,pie,strip,OK,ERR,OK
x86_64,ubuntu20,zip,gcc,O2,pie,nostrip,OK,ERR,OK
x86_64,ubuntu20,zip,gcc,O3,pie,strip,OK,ERR,OK
x86_64,ubuntu20,zip,gcc,O3,pie,nostrip,OK,ERR,OK
x86_64,ubuntu20,zip,gcc,Os,pie,strip,OK,ERR,OK
x86_64,ubuntu20,zip,gcc,Os,pie,nostrip,OK,ERR,OK
x86_64,ubuntu20,zip,gcc,Ofast,pie,strip,OK,ERR,OK
x86_64,ubuntu20,zip,gcc,Ofast,pie,nostrip,OK,ERR,OK
x86_64,ubuntu20,zip,gcc,O0,nopie,strip,OK,ERR,OK
x86_64,ubuntu20,zip,gcc,O0,nopie,nostrip,OK,ERR,OK
x86_64,ubuntu20,zip,gcc,O1,nopie,strip,OK,ERR,OK
x86_64,ubuntu20,zip,gcc,O1,nopie,nostrip,OK,ERR,OK
x86_64,ubuntu20,zip,gcc,O2,nopie,strip,OK,ERR,OK
x86_64,ubuntu20,zip,gcc,O2,nopie,nostrip,OK,ERR,OK
x86_64,ubuntu20,zip,gcc,O3,nopie,strip,OK,ERR,OK
x86_64,ubuntu20,zip,gcc,O3,nopie,nostrip,OK,ERR,OK
x86_64,ubuntu20,zip,gcc,Os,nopie,strip,ERR,ERR,ERR
x86_64,ubuntu20,zip,gcc,Os,nopie,nostrip,ERR,ERR,ERR
x86_64,ubuntu20,zip,gcc,Ofast,nopie,strip,OK,ERR,OK
x86_64,ubuntu20,zip,gcc,Ofast,nopie,nostrip,OK,ERR,OK
x86_64,ubuntu20,zip,clang,O0,pie,strip,OK,OK,OK
x86_64,ubuntu20,zip,clang,O0,pie,nostrip,OK,OK,OK
x86_64,ubuntu20,zip,clang,O1,pie,strip,ERR,ERR,ERR
x86_64,ubuntu20,zip,clang,O1,pie,nostrip,ERR,ERR,ERR
x86_64,ubuntu20,zip,clang,O2,pie,strip,OK,OK,OK
x86_64,ubuntu20,zip,clang,O2,pie,nostrip,OK,OK,OK
x86_64,ubuntu20,zip,clang,O3,pie,strip,OK,OK,OK
x86_64,ubuntu20,zip,clang,O3,pie,nostrip,OK,OK,OK
x86_64,ubuntu20,zip,clang,Os,pie,strip,ERR,ERR,ERR
x86_64,ubuntu20,zip,clang,Os,pie,nostrip,ERR,ERR,ERR
x86_64,ubuntu20,zip,clang,Ofast,pie,strip,OK,OK,OK
x86_64,ubuntu20,zip,clang,Ofast,pie,nostrip,OK,OK,OK
x86_64,ubuntu20,zip,clang,fla,pie,strip,OK,OK,OK
x86_64,ubuntu20,zip,clang,fla,pie,nostrip,OK,OK,OK
x86_64,ubuntu20,zip,clang,sub,pie,strip,OK,OK,OK
x86_64,ubuntu20,zip,clang,sub,pie,nostrip,OK,OK,OK
x86_64,ubuntu20,zip,clang,bcf,pie,strip,ERR,ERR,ERR
x86_64,ubuntu20,zip,clang,bcf,pie,nostrip,ERR,ERR,ERR
x86_64,ubuntu20,zip,clang,O0,nopie,strip,OK,ERR,OK
x86_64,ubuntu20,zip,clang,O0,nopie,nostrip,OK,ERR,OK
x86_64,ubuntu20,zip,clang,O1,nopie,strip,OK,ERR,OK
x86_64,ubuntu20,zip,clang,O1,nopie,nostrip,OK,ERR,OK
x86_64,ubuntu20,zip,clang,O2,nopie,strip,OK,ERR,OK
x86_64,ubuntu20,zip,clang,O2,nopie,nostrip,OK,ERR,OK
x86_64,ubuntu20,zip,clang,O3,nopie,strip,OK,ERR,OK
x86_64,ubuntu20,zip,clang,O3,nopie,nostrip,OK,ERR,OK
x86_64,ubuntu20,zip,clang,Os,nopie,strip,OK,ERR,OK
x86_64,ubuntu20,zip,clang,Os,nopie,nostrip,OK,ERR,OK
x86_64,ubuntu20,zip,clang,Ofast,nopie,strip,OK,ERR,OK
x86_64,ubuntu20,zip,clang,Ofast,nopie,nostrip,OK,ERR,OK
x86_64,ubuntu20,zip,clang,fla,nopie,strip,OK,ERR,OK
x86_64,ubuntu20,zip,clang,fla,nopie,nostrip,OK,ERR,OK
x86_64,ubuntu20,zip,clang,sub,nopie,strip,OK,ERR,OK
x86_64,ubuntu20,zip,clang,sub,nopie,nostrip,OK,ERR,OK
x86_64,ubuntu20,zip,clang,bcf,nopie,strip,ERR,ERR,ERR
x86_64,ubuntu20,zip,clang,bcf,nopie,nostrip,ERR,ERR,ERR
x86_64,ubuntu20,zip,icx,O0,pie,strip,OK,OK,OK
x86_64,ubuntu20,zip,icx,O0,pie,nostrip,OK,OK,OK
x86_64,ubuntu20,zip,icx,O1,pie,strip,OK,OK,OK
x86_64,ubuntu20,zip,icx,O1,pie,nostrip,OK,OK,OK
x86_64,ubuntu20,zip,icx,O2,pie,strip,OK,ERR,OK
x86_64,ubuntu20,zip,icx,O2,pie,nostrip,OK,ERR,OK
x86_64,ubuntu20,zip,icx,O3,pie,strip,OK,ERR,OK
x86_64,ubuntu20,zip,icx,O3,pie,nostrip,OK,ERR,OK
x86_64,ubuntu20,zip,icx,Os,pie,strip,ERR,ERR,ERR
x86_64,ubuntu20,zip,icx,Os,pie,nostrip,ERR,ERR,ERR
x86_64,ubuntu20,zip,icx,O0,nopie,strip,OK,ERR,OK
x86_64,ubuntu20,zip,icx,O0,nopie,nostrip,OK,ERR,OK
x86_64,ubuntu20,zip,icx,O1,nopie,strip,OK,ERR,OK
x86_64,ubuntu20,zip,icx,O1,nopie,nostrip,OK,ERR,OK
x86_64,ubuntu20,zip,icx,O2,nopie,strip,ERR,ERR,ERR
x86_64,ubuntu20,zip,icx,O2,nopie,nostrip,ERR,ERR,ERR
x86_64,ubuntu20,zip,icx,O3,nopie,strip,ERR,ERR,ERR
x86_64,ubuntu20,zip,icx,O3,nopie,nostrip,ERR,ERR,ERR
x86_64,ubuntu20,zip,icx,Os,nopie,strip,OK,ERR,OK
x86_64,ubuntu20,zip,icx,Os,nopie,nostrip,OK,ERR,OK
